%TF.GenerationSoftware,KiCad,Pcbnew,(6.0.0)*%
%TF.CreationDate,2022-03-29T14:32:56-05:00*%
%TF.ProjectId,Tunnel_controller3.0,54756e6e-656c-45f6-936f-6e74726f6c6c,rev?*%
%TF.SameCoordinates,Original*%
%TF.FileFunction,Soldermask,Bot*%
%TF.FilePolarity,Negative*%
%FSLAX46Y46*%
G04 Gerber Fmt 4.6, Leading zero omitted, Abs format (unit mm)*
G04 Created by KiCad (PCBNEW (6.0.0)) date 2022-03-29 14:32:56*
%MOMM*%
%LPD*%
G01*
G04 APERTURE LIST*
G04 Aperture macros list*
%AMRoundRect*
0 Rectangle with rounded corners*
0 $1 Rounding radius*
0 $2 $3 $4 $5 $6 $7 $8 $9 X,Y pos of 4 corners*
0 Add a 4 corners polygon primitive as box body*
4,1,4,$2,$3,$4,$5,$6,$7,$8,$9,$2,$3,0*
0 Add four circle primitives for the rounded corners*
1,1,$1+$1,$2,$3*
1,1,$1+$1,$4,$5*
1,1,$1+$1,$6,$7*
1,1,$1+$1,$8,$9*
0 Add four rect primitives between the rounded corners*
20,1,$1+$1,$2,$3,$4,$5,0*
20,1,$1+$1,$4,$5,$6,$7,0*
20,1,$1+$1,$6,$7,$8,$9,0*
20,1,$1+$1,$8,$9,$2,$3,0*%
G04 Aperture macros list end*
%ADD10C,1.440000*%
%ADD11RoundRect,0.250000X-0.845000X0.620000X-0.845000X-0.620000X0.845000X-0.620000X0.845000X0.620000X0*%
%ADD12O,2.190000X1.740000*%
%ADD13C,3.200000*%
%ADD14C,1.600000*%
%ADD15R,1.600000X1.600000*%
%ADD16O,1.600000X1.600000*%
%ADD17RoundRect,0.250000X0.600000X0.600000X-0.600000X0.600000X-0.600000X-0.600000X0.600000X-0.600000X0*%
%ADD18C,1.700000*%
%ADD19C,1.500000*%
%ADD20R,1.050000X1.500000*%
%ADD21O,1.050000X1.500000*%
%ADD22C,1.200000*%
%ADD23RoundRect,0.250000X0.845000X-0.620000X0.845000X0.620000X-0.845000X0.620000X-0.845000X-0.620000X0*%
%ADD24R,1.800000X1.800000*%
%ADD25C,1.800000*%
%ADD26R,3.200000X3.200000*%
%ADD27O,3.200000X3.200000*%
G04 APERTURE END LIST*
D10*
%TO.C,RV2*%
X70942200Y-122158600D03*
X70942200Y-119618600D03*
X70942200Y-117078600D03*
%TD*%
D11*
%TO.C,J5*%
X52857532Y-111124999D03*
D12*
X52857532Y-113664999D03*
X52857532Y-116204999D03*
X52857532Y-118744999D03*
%TD*%
D13*
%TO.C,H2*%
X115132933Y-61645800D03*
%TD*%
D14*
%TO.C,C3*%
X77007533Y-68616200D03*
X77007533Y-63616200D03*
%TD*%
D15*
%TO.C,D2*%
X84800932Y-138506199D03*
D16*
X84800932Y-130886199D03*
%TD*%
D17*
%TO.C,J1*%
X55544533Y-86207600D03*
D18*
X53004533Y-86207600D03*
X55544533Y-83667600D03*
X53004533Y-83667600D03*
X55544533Y-81127600D03*
X53004533Y-81127600D03*
%TD*%
D19*
%TO.C,Y1*%
X81223931Y-115454598D03*
X81223931Y-110574598D03*
%TD*%
D20*
%TO.C,Q1*%
X92323732Y-136651999D03*
D21*
X91053732Y-136651999D03*
X89783732Y-136651999D03*
%TD*%
D13*
%TO.C,H3*%
X115132933Y-138557000D03*
%TD*%
D14*
%TO.C,C4*%
X112719933Y-80757400D03*
X112719933Y-75757400D03*
%TD*%
D22*
%TO.C,C6*%
X81249331Y-120649998D03*
X81249331Y-122149998D03*
%TD*%
D23*
%TO.C,J7*%
X114751933Y-129641600D03*
D12*
X114751933Y-127101600D03*
X114751933Y-124561600D03*
X114751933Y-122021600D03*
X114751933Y-119481600D03*
X114751933Y-116941600D03*
X114751933Y-114401600D03*
X114751933Y-111861600D03*
X114751933Y-109321600D03*
X114751933Y-106781600D03*
X114751933Y-104241600D03*
X114751933Y-101701600D03*
X114751933Y-99161600D03*
X114751933Y-96621600D03*
X114751933Y-94081600D03*
X114751933Y-91541600D03*
%TD*%
D11*
%TO.C,J4*%
X52857532Y-124434599D03*
D12*
X52857532Y-126974599D03*
%TD*%
D22*
%TO.C,C5*%
X81223931Y-103923398D03*
X81223931Y-105423398D03*
%TD*%
D24*
%TO.C,D4*%
X108503533Y-70388400D03*
D25*
X108503533Y-67848400D03*
%TD*%
D13*
%TO.C,H1*%
X47137133Y-61645800D03*
%TD*%
D26*
%TO.C,D3*%
X88056533Y-78105000D03*
D27*
X72816533Y-78105000D03*
%TD*%
D10*
%TO.C,RV1*%
X100136933Y-133375400D03*
X102676933Y-133375400D03*
X105216933Y-133375400D03*
%TD*%
D15*
%TO.C,U1*%
X94568932Y-91602399D03*
D16*
X94568932Y-94142399D03*
X94568932Y-96682399D03*
X94568932Y-99222399D03*
X94568932Y-101762399D03*
X94568932Y-104302399D03*
X94568932Y-106842399D03*
X94568932Y-109382399D03*
X94568932Y-111922399D03*
X94568932Y-114462399D03*
X94568932Y-117002399D03*
X94568932Y-119542399D03*
X94568932Y-122082399D03*
X94568932Y-124622399D03*
X102188932Y-124622399D03*
X102188932Y-122082399D03*
X102188932Y-119542399D03*
X102188932Y-117002399D03*
X102188932Y-114462399D03*
X102188932Y-111922399D03*
X102188932Y-109382399D03*
X102188932Y-106842399D03*
X102188932Y-104302399D03*
X102188932Y-101762399D03*
X102188932Y-99222399D03*
X102188932Y-96682399D03*
X102188932Y-94142399D03*
X102188932Y-91602399D03*
%TD*%
D11*
%TO.C,J2*%
X62255533Y-66040000D03*
D12*
X62255533Y-68580000D03*
%TD*%
D11*
%TO.C,J3*%
X52755932Y-97180399D03*
D12*
X52755932Y-99720399D03*
X52755932Y-102260399D03*
X52755932Y-104800399D03*
%TD*%
D23*
%TO.C,J6*%
X66765932Y-134442199D03*
D12*
X66765932Y-131902199D03*
%TD*%
D13*
%TO.C,H4*%
X47137133Y-138557000D03*
%TD*%
D15*
%TO.C,U3*%
X80578932Y-136967199D03*
D16*
X80578932Y-134427199D03*
X80578932Y-131887199D03*
X72958932Y-131887199D03*
X72958932Y-134427199D03*
X72958932Y-136967199D03*
%TD*%
M02*
