%TF.GenerationSoftware,KiCad,Pcbnew,(6.0.0)*%
%TF.CreationDate,2022-03-29T14:32:56-05:00*%
%TF.ProjectId,Tunnel_controller3.0,54756e6e-656c-45f6-936f-6e74726f6c6c,rev?*%
%TF.SameCoordinates,Original*%
%TF.FileFunction,Legend,Top*%
%TF.FilePolarity,Positive*%
%FSLAX46Y46*%
G04 Gerber Fmt 4.6, Leading zero omitted, Abs format (unit mm)*
G04 Created by KiCad (PCBNEW (6.0.0)) date 2022-03-29 14:32:56*
%MOMM*%
%LPD*%
G01*
G04 APERTURE LIST*
%ADD10C,0.127000*%
%ADD11C,0.300000*%
%ADD12C,0.150000*%
%ADD13C,0.120000*%
G04 APERTURE END LIST*
D10*
X109929561Y-119826314D02*
X109675561Y-119463457D01*
X109494133Y-119826314D02*
X109494133Y-119064314D01*
X109784418Y-119064314D01*
X109856990Y-119100600D01*
X109893275Y-119136885D01*
X109929561Y-119209457D01*
X109929561Y-119318314D01*
X109893275Y-119390885D01*
X109856990Y-119427171D01*
X109784418Y-119463457D01*
X109494133Y-119463457D01*
X110183561Y-119064314D02*
X110364990Y-119826314D01*
X110510133Y-119282028D01*
X110655275Y-119826314D01*
X110836704Y-119064314D01*
X109965847Y-116963371D02*
X110219847Y-116963371D01*
X110328704Y-117362514D02*
X109965847Y-117362514D01*
X109965847Y-116600514D01*
X110328704Y-116600514D01*
X109497761Y-129463800D02*
X109425190Y-129427514D01*
X109316333Y-129427514D01*
X109207475Y-129463800D01*
X109134904Y-129536371D01*
X109098618Y-129608942D01*
X109062333Y-129754085D01*
X109062333Y-129862942D01*
X109098618Y-130008085D01*
X109134904Y-130080657D01*
X109207475Y-130153228D01*
X109316333Y-130189514D01*
X109388904Y-130189514D01*
X109497761Y-130153228D01*
X109534047Y-130116942D01*
X109534047Y-129862942D01*
X109388904Y-129862942D01*
X109860618Y-130189514D02*
X109860618Y-129427514D01*
X110296047Y-130189514D01*
X110296047Y-129427514D01*
X110658904Y-130189514D02*
X110658904Y-129427514D01*
X110840333Y-129427514D01*
X110949190Y-129463800D01*
X111021761Y-129536371D01*
X111058047Y-129608942D01*
X111094333Y-129754085D01*
X111094333Y-129862942D01*
X111058047Y-130008085D01*
X111021761Y-130080657D01*
X110949190Y-130153228D01*
X110840333Y-130189514D01*
X110658904Y-130189514D01*
X109505018Y-124169714D02*
X109759018Y-124931714D01*
X110013018Y-124169714D01*
X110375875Y-124931714D02*
X110303304Y-124895428D01*
X110267018Y-124859142D01*
X110230733Y-124786571D01*
X110230733Y-124568857D01*
X110267018Y-124496285D01*
X110303304Y-124460000D01*
X110375875Y-124423714D01*
X110484733Y-124423714D01*
X110557304Y-124460000D01*
X110593590Y-124496285D01*
X110629875Y-124568857D01*
X110629875Y-124786571D01*
X110593590Y-124859142D01*
X110557304Y-124895428D01*
X110484733Y-124931714D01*
X110375875Y-124931714D01*
X109160304Y-114746314D02*
X109160304Y-113984314D01*
X109341733Y-113984314D01*
X109450590Y-114020600D01*
X109523161Y-114093171D01*
X109559447Y-114165742D01*
X109595733Y-114310885D01*
X109595733Y-114419742D01*
X109559447Y-114564885D01*
X109523161Y-114637457D01*
X109450590Y-114710028D01*
X109341733Y-114746314D01*
X109160304Y-114746314D01*
X110176304Y-114347171D02*
X110285161Y-114383457D01*
X110321447Y-114419742D01*
X110357733Y-114492314D01*
X110357733Y-114601171D01*
X110321447Y-114673742D01*
X110285161Y-114710028D01*
X110212590Y-114746314D01*
X109922304Y-114746314D01*
X109922304Y-113984314D01*
X110176304Y-113984314D01*
X110248875Y-114020600D01*
X110285161Y-114056885D01*
X110321447Y-114129457D01*
X110321447Y-114202028D01*
X110285161Y-114274600D01*
X110248875Y-114310885D01*
X110176304Y-114347171D01*
X109922304Y-114347171D01*
X110829447Y-113984314D02*
X110902018Y-113984314D01*
X110974590Y-114020600D01*
X111010875Y-114056885D01*
X111047161Y-114129457D01*
X111083447Y-114274600D01*
X111083447Y-114456028D01*
X111047161Y-114601171D01*
X111010875Y-114673742D01*
X110974590Y-114710028D01*
X110902018Y-114746314D01*
X110829447Y-114746314D01*
X110756875Y-114710028D01*
X110720590Y-114673742D01*
X110684304Y-114601171D01*
X110648018Y-114456028D01*
X110648018Y-114274600D01*
X110684304Y-114129457D01*
X110720590Y-114056885D01*
X110756875Y-114020600D01*
X110829447Y-113984314D01*
X109976733Y-122493314D02*
X109722733Y-122130457D01*
X109541304Y-122493314D02*
X109541304Y-121731314D01*
X109831590Y-121731314D01*
X109904161Y-121767600D01*
X109940447Y-121803885D01*
X109976733Y-121876457D01*
X109976733Y-121985314D01*
X109940447Y-122057885D01*
X109904161Y-122094171D01*
X109831590Y-122130457D01*
X109541304Y-122130457D01*
X110267018Y-122457028D02*
X110375875Y-122493314D01*
X110557304Y-122493314D01*
X110629875Y-122457028D01*
X110666161Y-122420742D01*
X110702447Y-122348171D01*
X110702447Y-122275600D01*
X110666161Y-122203028D01*
X110629875Y-122166742D01*
X110557304Y-122130457D01*
X110412161Y-122094171D01*
X110339590Y-122057885D01*
X110303304Y-122021600D01*
X110267018Y-121949028D01*
X110267018Y-121876457D01*
X110303304Y-121803885D01*
X110339590Y-121767600D01*
X110412161Y-121731314D01*
X110593590Y-121731314D01*
X110702447Y-121767600D01*
X109185704Y-107177114D02*
X109185704Y-106415114D01*
X109367133Y-106415114D01*
X109475990Y-106451400D01*
X109548561Y-106523971D01*
X109584847Y-106596542D01*
X109621133Y-106741685D01*
X109621133Y-106850542D01*
X109584847Y-106995685D01*
X109548561Y-107068257D01*
X109475990Y-107140828D01*
X109367133Y-107177114D01*
X109185704Y-107177114D01*
X110201704Y-106777971D02*
X110310561Y-106814257D01*
X110346847Y-106850542D01*
X110383133Y-106923114D01*
X110383133Y-107031971D01*
X110346847Y-107104542D01*
X110310561Y-107140828D01*
X110237990Y-107177114D01*
X109947704Y-107177114D01*
X109947704Y-106415114D01*
X110201704Y-106415114D01*
X110274275Y-106451400D01*
X110310561Y-106487685D01*
X110346847Y-106560257D01*
X110346847Y-106632828D01*
X110310561Y-106705400D01*
X110274275Y-106741685D01*
X110201704Y-106777971D01*
X109947704Y-106777971D01*
X110637133Y-106415114D02*
X111108847Y-106415114D01*
X110854847Y-106705400D01*
X110963704Y-106705400D01*
X111036275Y-106741685D01*
X111072561Y-106777971D01*
X111108847Y-106850542D01*
X111108847Y-107031971D01*
X111072561Y-107104542D01*
X111036275Y-107140828D01*
X110963704Y-107177114D01*
X110745990Y-107177114D01*
X110673418Y-107140828D01*
X110637133Y-107104542D01*
X109185704Y-102071714D02*
X109185704Y-101309714D01*
X109367133Y-101309714D01*
X109475990Y-101346000D01*
X109548561Y-101418571D01*
X109584847Y-101491142D01*
X109621133Y-101636285D01*
X109621133Y-101745142D01*
X109584847Y-101890285D01*
X109548561Y-101962857D01*
X109475990Y-102035428D01*
X109367133Y-102071714D01*
X109185704Y-102071714D01*
X110201704Y-101672571D02*
X110310561Y-101708857D01*
X110346847Y-101745142D01*
X110383133Y-101817714D01*
X110383133Y-101926571D01*
X110346847Y-101999142D01*
X110310561Y-102035428D01*
X110237990Y-102071714D01*
X109947704Y-102071714D01*
X109947704Y-101309714D01*
X110201704Y-101309714D01*
X110274275Y-101346000D01*
X110310561Y-101382285D01*
X110346847Y-101454857D01*
X110346847Y-101527428D01*
X110310561Y-101600000D01*
X110274275Y-101636285D01*
X110201704Y-101672571D01*
X109947704Y-101672571D01*
X111072561Y-101309714D02*
X110709704Y-101309714D01*
X110673418Y-101672571D01*
X110709704Y-101636285D01*
X110782275Y-101600000D01*
X110963704Y-101600000D01*
X111036275Y-101636285D01*
X111072561Y-101672571D01*
X111108847Y-101745142D01*
X111108847Y-101926571D01*
X111072561Y-101999142D01*
X111036275Y-102035428D01*
X110963704Y-102071714D01*
X110782275Y-102071714D01*
X110709704Y-102035428D01*
X110673418Y-101999142D01*
X109185704Y-99531714D02*
X109185704Y-98769714D01*
X109367133Y-98769714D01*
X109475990Y-98806000D01*
X109548561Y-98878571D01*
X109584847Y-98951142D01*
X109621133Y-99096285D01*
X109621133Y-99205142D01*
X109584847Y-99350285D01*
X109548561Y-99422857D01*
X109475990Y-99495428D01*
X109367133Y-99531714D01*
X109185704Y-99531714D01*
X110201704Y-99132571D02*
X110310561Y-99168857D01*
X110346847Y-99205142D01*
X110383133Y-99277714D01*
X110383133Y-99386571D01*
X110346847Y-99459142D01*
X110310561Y-99495428D01*
X110237990Y-99531714D01*
X109947704Y-99531714D01*
X109947704Y-98769714D01*
X110201704Y-98769714D01*
X110274275Y-98806000D01*
X110310561Y-98842285D01*
X110346847Y-98914857D01*
X110346847Y-98987428D01*
X110310561Y-99060000D01*
X110274275Y-99096285D01*
X110201704Y-99132571D01*
X109947704Y-99132571D01*
X111036275Y-98769714D02*
X110891133Y-98769714D01*
X110818561Y-98806000D01*
X110782275Y-98842285D01*
X110709704Y-98951142D01*
X110673418Y-99096285D01*
X110673418Y-99386571D01*
X110709704Y-99459142D01*
X110745990Y-99495428D01*
X110818561Y-99531714D01*
X110963704Y-99531714D01*
X111036275Y-99495428D01*
X111072561Y-99459142D01*
X111108847Y-99386571D01*
X111108847Y-99205142D01*
X111072561Y-99132571D01*
X111036275Y-99096285D01*
X110963704Y-99060000D01*
X110818561Y-99060000D01*
X110745990Y-99096285D01*
X110709704Y-99132571D01*
X110673418Y-99205142D01*
D11*
X57912275Y-69708485D02*
X57912275Y-68605400D01*
X58483704Y-69156942D02*
X57340847Y-69156942D01*
X57912275Y-65709800D02*
X57912275Y-64606714D01*
D10*
X109958590Y-126887514D02*
X109595733Y-126887514D01*
X109559447Y-127250371D01*
X109595733Y-127214085D01*
X109668304Y-127177800D01*
X109849733Y-127177800D01*
X109922304Y-127214085D01*
X109958590Y-127250371D01*
X109994875Y-127322942D01*
X109994875Y-127504371D01*
X109958590Y-127576942D01*
X109922304Y-127613228D01*
X109849733Y-127649514D01*
X109668304Y-127649514D01*
X109595733Y-127613228D01*
X109559447Y-127576942D01*
X110212590Y-126887514D02*
X110466590Y-127649514D01*
X110720590Y-126887514D01*
X109211104Y-104687914D02*
X109211104Y-103925914D01*
X109392533Y-103925914D01*
X109501390Y-103962200D01*
X109573961Y-104034771D01*
X109610247Y-104107342D01*
X109646533Y-104252485D01*
X109646533Y-104361342D01*
X109610247Y-104506485D01*
X109573961Y-104579057D01*
X109501390Y-104651628D01*
X109392533Y-104687914D01*
X109211104Y-104687914D01*
X110227104Y-104288771D02*
X110335961Y-104325057D01*
X110372247Y-104361342D01*
X110408533Y-104433914D01*
X110408533Y-104542771D01*
X110372247Y-104615342D01*
X110335961Y-104651628D01*
X110263390Y-104687914D01*
X109973104Y-104687914D01*
X109973104Y-103925914D01*
X110227104Y-103925914D01*
X110299675Y-103962200D01*
X110335961Y-103998485D01*
X110372247Y-104071057D01*
X110372247Y-104143628D01*
X110335961Y-104216200D01*
X110299675Y-104252485D01*
X110227104Y-104288771D01*
X109973104Y-104288771D01*
X111061675Y-104179914D02*
X111061675Y-104687914D01*
X110880247Y-103889628D02*
X110698818Y-104433914D01*
X111170533Y-104433914D01*
X109160304Y-109691714D02*
X109160304Y-108929714D01*
X109341733Y-108929714D01*
X109450590Y-108966000D01*
X109523161Y-109038571D01*
X109559447Y-109111142D01*
X109595733Y-109256285D01*
X109595733Y-109365142D01*
X109559447Y-109510285D01*
X109523161Y-109582857D01*
X109450590Y-109655428D01*
X109341733Y-109691714D01*
X109160304Y-109691714D01*
X110176304Y-109292571D02*
X110285161Y-109328857D01*
X110321447Y-109365142D01*
X110357733Y-109437714D01*
X110357733Y-109546571D01*
X110321447Y-109619142D01*
X110285161Y-109655428D01*
X110212590Y-109691714D01*
X109922304Y-109691714D01*
X109922304Y-108929714D01*
X110176304Y-108929714D01*
X110248875Y-108966000D01*
X110285161Y-109002285D01*
X110321447Y-109074857D01*
X110321447Y-109147428D01*
X110285161Y-109220000D01*
X110248875Y-109256285D01*
X110176304Y-109292571D01*
X109922304Y-109292571D01*
X110648018Y-109002285D02*
X110684304Y-108966000D01*
X110756875Y-108929714D01*
X110938304Y-108929714D01*
X111010875Y-108966000D01*
X111047161Y-109002285D01*
X111083447Y-109074857D01*
X111083447Y-109147428D01*
X111047161Y-109256285D01*
X110611733Y-109691714D01*
X111083447Y-109691714D01*
X109185704Y-112257114D02*
X109185704Y-111495114D01*
X109367133Y-111495114D01*
X109475990Y-111531400D01*
X109548561Y-111603971D01*
X109584847Y-111676542D01*
X109621133Y-111821685D01*
X109621133Y-111930542D01*
X109584847Y-112075685D01*
X109548561Y-112148257D01*
X109475990Y-112220828D01*
X109367133Y-112257114D01*
X109185704Y-112257114D01*
X110201704Y-111857971D02*
X110310561Y-111894257D01*
X110346847Y-111930542D01*
X110383133Y-112003114D01*
X110383133Y-112111971D01*
X110346847Y-112184542D01*
X110310561Y-112220828D01*
X110237990Y-112257114D01*
X109947704Y-112257114D01*
X109947704Y-111495114D01*
X110201704Y-111495114D01*
X110274275Y-111531400D01*
X110310561Y-111567685D01*
X110346847Y-111640257D01*
X110346847Y-111712828D01*
X110310561Y-111785400D01*
X110274275Y-111821685D01*
X110201704Y-111857971D01*
X109947704Y-111857971D01*
X111108847Y-112257114D02*
X110673418Y-112257114D01*
X110891133Y-112257114D02*
X110891133Y-111495114D01*
X110818561Y-111603971D01*
X110745990Y-111676542D01*
X110673418Y-111712828D01*
D11*
X65236446Y-89879970D02*
X66078274Y-89879970D01*
X65657360Y-91379970D02*
X65657360Y-89879970D01*
X67200712Y-90379970D02*
X67200712Y-91379970D01*
X66569341Y-90379970D02*
X66569341Y-91165684D01*
X66639493Y-91308541D01*
X66779798Y-91379970D01*
X66990255Y-91379970D01*
X67130560Y-91308541D01*
X67200712Y-91237113D01*
X67902236Y-90379970D02*
X67902236Y-91379970D01*
X67902236Y-90522827D02*
X67972389Y-90451399D01*
X68112693Y-90379970D01*
X68323151Y-90379970D01*
X68463455Y-90451399D01*
X68533608Y-90594256D01*
X68533608Y-91379970D01*
X69235132Y-90379970D02*
X69235132Y-91379970D01*
X69235132Y-90522827D02*
X69305284Y-90451399D01*
X69445589Y-90379970D01*
X69656046Y-90379970D01*
X69796351Y-90451399D01*
X69866503Y-90594256D01*
X69866503Y-91379970D01*
X71129246Y-91308541D02*
X70988941Y-91379970D01*
X70708332Y-91379970D01*
X70568027Y-91308541D01*
X70497874Y-91165684D01*
X70497874Y-90594256D01*
X70568027Y-90451399D01*
X70708332Y-90379970D01*
X70988941Y-90379970D01*
X71129246Y-90451399D01*
X71199398Y-90594256D01*
X71199398Y-90737113D01*
X70497874Y-90879970D01*
X72041227Y-91379970D02*
X71900922Y-91308541D01*
X71830770Y-91165684D01*
X71830770Y-89879970D01*
X74566712Y-91237113D02*
X74496560Y-91308541D01*
X74286103Y-91379970D01*
X74145798Y-91379970D01*
X73935341Y-91308541D01*
X73795036Y-91165684D01*
X73724884Y-91022827D01*
X73654732Y-90737113D01*
X73654732Y-90522827D01*
X73724884Y-90237113D01*
X73795036Y-90094256D01*
X73935341Y-89951399D01*
X74145798Y-89879970D01*
X74286103Y-89879970D01*
X74496560Y-89951399D01*
X74566712Y-90022827D01*
X75408541Y-91379970D02*
X75268236Y-91308541D01*
X75198084Y-91237113D01*
X75127932Y-91094256D01*
X75127932Y-90665684D01*
X75198084Y-90522827D01*
X75268236Y-90451399D01*
X75408541Y-90379970D01*
X75618998Y-90379970D01*
X75759303Y-90451399D01*
X75829455Y-90522827D01*
X75899608Y-90665684D01*
X75899608Y-91094256D01*
X75829455Y-91237113D01*
X75759303Y-91308541D01*
X75618998Y-91379970D01*
X75408541Y-91379970D01*
X76530979Y-90379970D02*
X76530979Y-91379970D01*
X76530979Y-90522827D02*
X76601132Y-90451399D01*
X76741436Y-90379970D01*
X76951893Y-90379970D01*
X77092198Y-90451399D01*
X77162351Y-90594256D01*
X77162351Y-91379970D01*
X77653417Y-90379970D02*
X78214636Y-90379970D01*
X77863874Y-89879970D02*
X77863874Y-91165684D01*
X77934027Y-91308541D01*
X78074332Y-91379970D01*
X78214636Y-91379970D01*
X78705703Y-91379970D02*
X78705703Y-90379970D01*
X78705703Y-90665684D02*
X78775855Y-90522827D01*
X78846008Y-90451399D01*
X78986312Y-90379970D01*
X79126617Y-90379970D01*
X79828141Y-91379970D02*
X79687836Y-91308541D01*
X79617684Y-91237113D01*
X79547532Y-91094256D01*
X79547532Y-90665684D01*
X79617684Y-90522827D01*
X79687836Y-90451399D01*
X79828141Y-90379970D01*
X80038598Y-90379970D01*
X80178903Y-90451399D01*
X80249055Y-90522827D01*
X80319208Y-90665684D01*
X80319208Y-91094256D01*
X80249055Y-91237113D01*
X80178903Y-91308541D01*
X80038598Y-91379970D01*
X79828141Y-91379970D01*
X81161036Y-91379970D02*
X81020732Y-91308541D01*
X80950579Y-91165684D01*
X80950579Y-89879970D01*
X81932712Y-91379970D02*
X81792408Y-91308541D01*
X81722255Y-91165684D01*
X81722255Y-89879970D01*
X83055151Y-91308541D02*
X82914846Y-91379970D01*
X82634236Y-91379970D01*
X82493932Y-91308541D01*
X82423779Y-91165684D01*
X82423779Y-90594256D01*
X82493932Y-90451399D01*
X82634236Y-90379970D01*
X82914846Y-90379970D01*
X83055151Y-90451399D01*
X83125303Y-90594256D01*
X83125303Y-90737113D01*
X82423779Y-90879970D01*
X83756674Y-91379970D02*
X83756674Y-90379970D01*
X83756674Y-90665684D02*
X83826827Y-90522827D01*
X83896979Y-90451399D01*
X84037284Y-90379970D01*
X84177589Y-90379970D01*
X85580636Y-89879970D02*
X86071703Y-91379970D01*
X86562770Y-89879970D01*
X86913532Y-89879970D02*
X87825512Y-89879970D01*
X87334446Y-90451399D01*
X87544903Y-90451399D01*
X87685208Y-90522827D01*
X87755360Y-90594256D01*
X87825512Y-90737113D01*
X87825512Y-91094256D01*
X87755360Y-91237113D01*
X87685208Y-91308541D01*
X87544903Y-91379970D01*
X87123989Y-91379970D01*
X86983684Y-91308541D01*
X86913532Y-91237113D01*
X70357570Y-92294970D02*
X71269551Y-92294970D01*
X70778484Y-92866399D01*
X70988941Y-92866399D01*
X71129246Y-92937827D01*
X71199398Y-93009256D01*
X71269551Y-93152113D01*
X71269551Y-93509256D01*
X71199398Y-93652113D01*
X71129246Y-93723541D01*
X70988941Y-93794970D01*
X70568027Y-93794970D01*
X70427722Y-93723541D01*
X70357570Y-93652113D01*
X72953208Y-92223541D02*
X71690465Y-94152113D01*
X73374122Y-92437827D02*
X73444274Y-92366399D01*
X73584579Y-92294970D01*
X73935341Y-92294970D01*
X74075646Y-92366399D01*
X74145798Y-92437827D01*
X74215951Y-92580684D01*
X74215951Y-92723541D01*
X74145798Y-92937827D01*
X73303970Y-93794970D01*
X74215951Y-93794970D01*
X74917474Y-93794970D02*
X75198084Y-93794970D01*
X75338389Y-93723541D01*
X75408541Y-93652113D01*
X75548846Y-93437827D01*
X75618998Y-93152113D01*
X75618998Y-92580684D01*
X75548846Y-92437827D01*
X75478693Y-92366399D01*
X75338389Y-92294970D01*
X75057779Y-92294970D01*
X74917474Y-92366399D01*
X74847322Y-92437827D01*
X74777170Y-92580684D01*
X74777170Y-92937827D01*
X74847322Y-93080684D01*
X74917474Y-93152113D01*
X75057779Y-93223541D01*
X75338389Y-93223541D01*
X75478693Y-93152113D01*
X75548846Y-93080684D01*
X75618998Y-92937827D01*
X77302655Y-92223541D02*
X76039912Y-94152113D01*
X77723570Y-92437827D02*
X77793722Y-92366399D01*
X77934027Y-92294970D01*
X78284789Y-92294970D01*
X78425093Y-92366399D01*
X78495246Y-92437827D01*
X78565398Y-92580684D01*
X78565398Y-92723541D01*
X78495246Y-92937827D01*
X77653417Y-93794970D01*
X78565398Y-93794970D01*
X79477379Y-92294970D02*
X79617684Y-92294970D01*
X79757989Y-92366399D01*
X79828141Y-92437827D01*
X79898293Y-92580684D01*
X79968446Y-92866399D01*
X79968446Y-93223541D01*
X79898293Y-93509256D01*
X79828141Y-93652113D01*
X79757989Y-93723541D01*
X79617684Y-93794970D01*
X79477379Y-93794970D01*
X79337074Y-93723541D01*
X79266922Y-93652113D01*
X79196770Y-93509256D01*
X79126617Y-93223541D01*
X79126617Y-92866399D01*
X79196770Y-92580684D01*
X79266922Y-92437827D01*
X79337074Y-92366399D01*
X79477379Y-92294970D01*
X80529665Y-92437827D02*
X80599817Y-92366399D01*
X80740122Y-92294970D01*
X81090884Y-92294970D01*
X81231189Y-92366399D01*
X81301341Y-92437827D01*
X81371493Y-92580684D01*
X81371493Y-92723541D01*
X81301341Y-92937827D01*
X80459512Y-93794970D01*
X81371493Y-93794970D01*
X81932712Y-92437827D02*
X82002865Y-92366399D01*
X82143170Y-92294970D01*
X82493932Y-92294970D01*
X82634236Y-92366399D01*
X82704389Y-92437827D01*
X82774541Y-92580684D01*
X82774541Y-92723541D01*
X82704389Y-92937827D01*
X81862560Y-93794970D01*
X82774541Y-93794970D01*
X71935998Y-94709970D02*
X72777827Y-94709970D01*
X72356912Y-96209970D02*
X72356912Y-94709970D01*
X73830112Y-96138541D02*
X73689808Y-96209970D01*
X73409198Y-96209970D01*
X73268893Y-96138541D01*
X73198741Y-95995684D01*
X73198741Y-95424256D01*
X73268893Y-95281399D01*
X73409198Y-95209970D01*
X73689808Y-95209970D01*
X73830112Y-95281399D01*
X73900265Y-95424256D01*
X73900265Y-95567113D01*
X73198741Y-95709970D01*
X75163008Y-96209970D02*
X75163008Y-95424256D01*
X75092855Y-95281399D01*
X74952551Y-95209970D01*
X74671941Y-95209970D01*
X74531636Y-95281399D01*
X75163008Y-96138541D02*
X75022703Y-96209970D01*
X74671941Y-96209970D01*
X74531636Y-96138541D01*
X74461484Y-95995684D01*
X74461484Y-95852827D01*
X74531636Y-95709970D01*
X74671941Y-95638541D01*
X75022703Y-95638541D01*
X75163008Y-95567113D01*
X75864532Y-96209970D02*
X75864532Y-95209970D01*
X75864532Y-95352827D02*
X75934684Y-95281399D01*
X76074989Y-95209970D01*
X76285446Y-95209970D01*
X76425751Y-95281399D01*
X76495903Y-95424256D01*
X76495903Y-96209970D01*
X76495903Y-95424256D02*
X76566055Y-95281399D01*
X76706360Y-95209970D01*
X76916817Y-95209970D01*
X77057122Y-95281399D01*
X77127274Y-95424256D01*
X77127274Y-96209970D01*
X78881084Y-94852827D02*
X78951236Y-94781399D01*
X79091541Y-94709970D01*
X79442303Y-94709970D01*
X79582608Y-94781399D01*
X79652760Y-94852827D01*
X79722912Y-94995684D01*
X79722912Y-95138541D01*
X79652760Y-95352827D01*
X78810932Y-96209970D01*
X79722912Y-96209970D01*
X80985655Y-94709970D02*
X80705046Y-94709970D01*
X80564741Y-94781399D01*
X80494589Y-94852827D01*
X80354284Y-95067113D01*
X80284132Y-95352827D01*
X80284132Y-95924256D01*
X80354284Y-96067113D01*
X80424436Y-96138541D01*
X80564741Y-96209970D01*
X80845351Y-96209970D01*
X80985655Y-96138541D01*
X81055808Y-96067113D01*
X81125960Y-95924256D01*
X81125960Y-95567113D01*
X81055808Y-95424256D01*
X80985655Y-95352827D01*
X80845351Y-95281399D01*
X80564741Y-95281399D01*
X80424436Y-95352827D01*
X80354284Y-95424256D01*
X80284132Y-95567113D01*
D10*
X109236504Y-96991714D02*
X109236504Y-96229714D01*
X109417933Y-96229714D01*
X109526790Y-96266000D01*
X109599361Y-96338571D01*
X109635647Y-96411142D01*
X109671933Y-96556285D01*
X109671933Y-96665142D01*
X109635647Y-96810285D01*
X109599361Y-96882857D01*
X109526790Y-96955428D01*
X109417933Y-96991714D01*
X109236504Y-96991714D01*
X110252504Y-96592571D02*
X110361361Y-96628857D01*
X110397647Y-96665142D01*
X110433933Y-96737714D01*
X110433933Y-96846571D01*
X110397647Y-96919142D01*
X110361361Y-96955428D01*
X110288790Y-96991714D01*
X109998504Y-96991714D01*
X109998504Y-96229714D01*
X110252504Y-96229714D01*
X110325075Y-96266000D01*
X110361361Y-96302285D01*
X110397647Y-96374857D01*
X110397647Y-96447428D01*
X110361361Y-96520000D01*
X110325075Y-96556285D01*
X110252504Y-96592571D01*
X109998504Y-96592571D01*
X110687933Y-96229714D02*
X111195933Y-96229714D01*
X110869361Y-96991714D01*
D12*
%TO.C,RV2*%
X75054580Y-120213838D02*
X74578390Y-120547171D01*
X75054580Y-120785266D02*
X74054580Y-120785266D01*
X74054580Y-120404314D01*
X74102200Y-120309076D01*
X74149819Y-120261457D01*
X74245057Y-120213838D01*
X74387914Y-120213838D01*
X74483152Y-120261457D01*
X74530771Y-120309076D01*
X74578390Y-120404314D01*
X74578390Y-120785266D01*
X74054580Y-119928123D02*
X75054580Y-119594790D01*
X74054580Y-119261457D01*
X74149819Y-118975742D02*
X74102200Y-118928123D01*
X74054580Y-118832885D01*
X74054580Y-118594790D01*
X74102200Y-118499552D01*
X74149819Y-118451933D01*
X74245057Y-118404314D01*
X74340295Y-118404314D01*
X74483152Y-118451933D01*
X75054580Y-119023361D01*
X75054580Y-118404314D01*
%TO.C,R1*%
X61595466Y-83255380D02*
X61262133Y-82779190D01*
X61024037Y-83255380D02*
X61024037Y-82255380D01*
X61404990Y-82255380D01*
X61500228Y-82303000D01*
X61547847Y-82350619D01*
X61595466Y-82445857D01*
X61595466Y-82588714D01*
X61547847Y-82683952D01*
X61500228Y-82731571D01*
X61404990Y-82779190D01*
X61024037Y-82779190D01*
X62547847Y-83255380D02*
X61976418Y-83255380D01*
X62262133Y-83255380D02*
X62262133Y-82255380D01*
X62166894Y-82398238D01*
X62071656Y-82493476D01*
X61976418Y-82541095D01*
%TO.C,R2*%
X89805312Y-131098665D02*
X89329122Y-131431999D01*
X89805312Y-131670094D02*
X88805312Y-131670094D01*
X88805312Y-131289141D01*
X88852932Y-131193903D01*
X88900551Y-131146284D01*
X88995789Y-131098665D01*
X89138646Y-131098665D01*
X89233884Y-131146284D01*
X89281503Y-131193903D01*
X89329122Y-131289141D01*
X89329122Y-131670094D01*
X88900551Y-130717713D02*
X88852932Y-130670094D01*
X88805312Y-130574856D01*
X88805312Y-130336760D01*
X88852932Y-130241522D01*
X88900551Y-130193903D01*
X88995789Y-130146284D01*
X89091027Y-130146284D01*
X89233884Y-130193903D01*
X89805312Y-130765332D01*
X89805312Y-130146284D01*
%TO.C,L1*%
X85741311Y-108700864D02*
X85741311Y-109177055D01*
X84741311Y-109177055D01*
X85741311Y-107843721D02*
X85741311Y-108415150D01*
X85741311Y-108129436D02*
X84741311Y-108129436D01*
X84884169Y-108224674D01*
X84979407Y-108319912D01*
X85027026Y-108415150D01*
%TO.C,R5*%
X110605912Y-64327065D02*
X110129722Y-64660399D01*
X110605912Y-64898494D02*
X109605912Y-64898494D01*
X109605912Y-64517541D01*
X109653532Y-64422303D01*
X109701151Y-64374684D01*
X109796389Y-64327065D01*
X109939246Y-64327065D01*
X110034484Y-64374684D01*
X110082103Y-64422303D01*
X110129722Y-64517541D01*
X110129722Y-64898494D01*
X109605912Y-63422303D02*
X109605912Y-63898494D01*
X110082103Y-63946113D01*
X110034484Y-63898494D01*
X109986865Y-63803256D01*
X109986865Y-63565160D01*
X110034484Y-63469922D01*
X110082103Y-63422303D01*
X110177341Y-63374684D01*
X110415436Y-63374684D01*
X110510674Y-63422303D01*
X110558293Y-63469922D01*
X110605912Y-63565160D01*
X110605912Y-63803256D01*
X110558293Y-63898494D01*
X110510674Y-63946113D01*
%TO.C,J5*%
X56429912Y-115268332D02*
X57144198Y-115268332D01*
X57287055Y-115315951D01*
X57382293Y-115411189D01*
X57429912Y-115554046D01*
X57429912Y-115649284D01*
X56429912Y-114315951D02*
X56429912Y-114792141D01*
X56906103Y-114839760D01*
X56858484Y-114792141D01*
X56810865Y-114696903D01*
X56810865Y-114458808D01*
X56858484Y-114363570D01*
X56906103Y-114315951D01*
X57001341Y-114268332D01*
X57239436Y-114268332D01*
X57334674Y-114315951D01*
X57382293Y-114363570D01*
X57429912Y-114458808D01*
X57429912Y-114696903D01*
X57382293Y-114792141D01*
X57334674Y-114839760D01*
X49229912Y-121554046D02*
X48229912Y-121554046D01*
X48706103Y-121554046D02*
X48706103Y-120982618D01*
X49229912Y-120982618D02*
X48229912Y-120982618D01*
X49229912Y-120077856D02*
X48706103Y-120077856D01*
X48610865Y-120125475D01*
X48563246Y-120220713D01*
X48563246Y-120411189D01*
X48610865Y-120506427D01*
X49182293Y-120077856D02*
X49229912Y-120173094D01*
X49229912Y-120411189D01*
X49182293Y-120506427D01*
X49087055Y-120554046D01*
X48991817Y-120554046D01*
X48896579Y-120506427D01*
X48848960Y-120411189D01*
X48848960Y-120173094D01*
X48801341Y-120077856D01*
X49229912Y-119458808D02*
X49182293Y-119554046D01*
X49087055Y-119601665D01*
X48229912Y-119601665D01*
X49229912Y-118934999D02*
X49182293Y-119030237D01*
X49087055Y-119077856D01*
X48229912Y-119077856D01*
X49182293Y-118173094D02*
X49229912Y-118268332D01*
X49229912Y-118458808D01*
X49182293Y-118554046D01*
X49087055Y-118601665D01*
X48706103Y-118601665D01*
X48610865Y-118554046D01*
X48563246Y-118458808D01*
X48563246Y-118268332D01*
X48610865Y-118173094D01*
X48706103Y-118125475D01*
X48801341Y-118125475D01*
X48896579Y-118601665D01*
X48563246Y-117839760D02*
X48563246Y-117458808D01*
X49229912Y-117696903D02*
X48372770Y-117696903D01*
X48277532Y-117649284D01*
X48229912Y-117554046D01*
X48229912Y-117458808D01*
X48563246Y-117268332D02*
X48563246Y-116887379D01*
X49229912Y-117125475D02*
X48372770Y-117125475D01*
X48277532Y-117077856D01*
X48229912Y-116982618D01*
X48229912Y-116887379D01*
X49182293Y-116173094D02*
X49229912Y-116268332D01*
X49229912Y-116458808D01*
X49182293Y-116554046D01*
X49087055Y-116601665D01*
X48706103Y-116601665D01*
X48610865Y-116554046D01*
X48563246Y-116458808D01*
X48563246Y-116268332D01*
X48610865Y-116173094D01*
X48706103Y-116125475D01*
X48801341Y-116125475D01*
X48896579Y-116601665D01*
X49182293Y-115268332D02*
X49229912Y-115363570D01*
X49229912Y-115554046D01*
X49182293Y-115649284D01*
X49134674Y-115696903D01*
X49039436Y-115744522D01*
X48753722Y-115744522D01*
X48658484Y-115696903D01*
X48610865Y-115649284D01*
X48563246Y-115554046D01*
X48563246Y-115363570D01*
X48610865Y-115268332D01*
X48563246Y-114982618D02*
X48563246Y-114601665D01*
X48229912Y-114839760D02*
X49087055Y-114839760D01*
X49182293Y-114792141D01*
X49229912Y-114696903D01*
X49229912Y-114601665D01*
X49182293Y-113554046D02*
X49229912Y-113458808D01*
X49229912Y-113268332D01*
X49182293Y-113173094D01*
X49087055Y-113125475D01*
X49039436Y-113125475D01*
X48944198Y-113173094D01*
X48896579Y-113268332D01*
X48896579Y-113411189D01*
X48848960Y-113506427D01*
X48753722Y-113554046D01*
X48706103Y-113554046D01*
X48610865Y-113506427D01*
X48563246Y-113411189D01*
X48563246Y-113268332D01*
X48610865Y-113173094D01*
X49182293Y-112315951D02*
X49229912Y-112411189D01*
X49229912Y-112601665D01*
X49182293Y-112696903D01*
X49087055Y-112744522D01*
X48706103Y-112744522D01*
X48610865Y-112696903D01*
X48563246Y-112601665D01*
X48563246Y-112411189D01*
X48610865Y-112315951D01*
X48706103Y-112268332D01*
X48801341Y-112268332D01*
X48896579Y-112744522D01*
X48563246Y-111839760D02*
X49229912Y-111839760D01*
X48658484Y-111839760D02*
X48610865Y-111792141D01*
X48563246Y-111696903D01*
X48563246Y-111554046D01*
X48610865Y-111458808D01*
X48706103Y-111411189D01*
X49229912Y-111411189D01*
X49182293Y-110982618D02*
X49229912Y-110887379D01*
X49229912Y-110696903D01*
X49182293Y-110601665D01*
X49087055Y-110554046D01*
X49039436Y-110554046D01*
X48944198Y-110601665D01*
X48896579Y-110696903D01*
X48896579Y-110839760D01*
X48848960Y-110934999D01*
X48753722Y-110982618D01*
X48706103Y-110982618D01*
X48610865Y-110934999D01*
X48563246Y-110839760D01*
X48563246Y-110696903D01*
X48610865Y-110601665D01*
X49229912Y-109982618D02*
X49182293Y-110077856D01*
X49134674Y-110125475D01*
X49039436Y-110173094D01*
X48753722Y-110173094D01*
X48658484Y-110125475D01*
X48610865Y-110077856D01*
X48563246Y-109982618D01*
X48563246Y-109839760D01*
X48610865Y-109744522D01*
X48658484Y-109696903D01*
X48753722Y-109649284D01*
X49039436Y-109649284D01*
X49134674Y-109696903D01*
X49182293Y-109744522D01*
X49229912Y-109839760D01*
X49229912Y-109982618D01*
X49229912Y-109220713D02*
X48563246Y-109220713D01*
X48753722Y-109220713D02*
X48658484Y-109173094D01*
X48610865Y-109125475D01*
X48563246Y-109030237D01*
X48563246Y-108934999D01*
%TO.C,H2*%
X114269428Y-66441580D02*
X114269428Y-65441580D01*
X114269428Y-65917771D02*
X114840856Y-65917771D01*
X114840856Y-66441580D02*
X114840856Y-65441580D01*
X115269428Y-65536819D02*
X115317047Y-65489200D01*
X115412285Y-65441580D01*
X115650380Y-65441580D01*
X115745618Y-65489200D01*
X115793237Y-65536819D01*
X115840856Y-65632057D01*
X115840856Y-65727295D01*
X115793237Y-65870152D01*
X115221809Y-66441580D01*
X115840856Y-66441580D01*
%TO.C,C3*%
X69864675Y-66282866D02*
X69912294Y-66330485D01*
X69959913Y-66473342D01*
X69959913Y-66568580D01*
X69912294Y-66711438D01*
X69817056Y-66806676D01*
X69721818Y-66854295D01*
X69531342Y-66901914D01*
X69388485Y-66901914D01*
X69198009Y-66854295D01*
X69102771Y-66806676D01*
X69007533Y-66711438D01*
X68959913Y-66568580D01*
X68959913Y-66473342D01*
X69007533Y-66330485D01*
X69055152Y-66282866D01*
X68959913Y-65949533D02*
X68959913Y-65330485D01*
X69340866Y-65663819D01*
X69340866Y-65520961D01*
X69388485Y-65425723D01*
X69436104Y-65378104D01*
X69531342Y-65330485D01*
X69769437Y-65330485D01*
X69864675Y-65378104D01*
X69912294Y-65425723D01*
X69959913Y-65520961D01*
X69959913Y-65806676D01*
X69912294Y-65901914D01*
X69864675Y-65949533D01*
%TO.C,D2*%
X83133312Y-135434294D02*
X82133312Y-135434294D01*
X82133312Y-135196199D01*
X82180932Y-135053341D01*
X82276170Y-134958103D01*
X82371408Y-134910484D01*
X82561884Y-134862865D01*
X82704741Y-134862865D01*
X82895217Y-134910484D01*
X82990455Y-134958103D01*
X83085693Y-135053341D01*
X83133312Y-135196199D01*
X83133312Y-135434294D01*
X82228551Y-134481913D02*
X82180932Y-134434294D01*
X82133312Y-134339056D01*
X82133312Y-134100960D01*
X82180932Y-134005722D01*
X82228551Y-133958103D01*
X82323789Y-133910484D01*
X82419027Y-133910484D01*
X82561884Y-133958103D01*
X83133312Y-134529532D01*
X83133312Y-133910484D01*
X83377112Y-138742703D02*
X82377112Y-138742703D01*
X83377112Y-138171275D02*
X82805684Y-138599846D01*
X82377112Y-138171275D02*
X82948541Y-138742703D01*
%TO.C,U2*%
X94880428Y-58048580D02*
X94880428Y-58858104D01*
X94928047Y-58953342D01*
X94975666Y-59000961D01*
X95070904Y-59048580D01*
X95261380Y-59048580D01*
X95356618Y-59000961D01*
X95404237Y-58953342D01*
X95451856Y-58858104D01*
X95451856Y-58048580D01*
X95880428Y-58143819D02*
X95928047Y-58096200D01*
X96023285Y-58048580D01*
X96261380Y-58048580D01*
X96356618Y-58096200D01*
X96404237Y-58143819D01*
X96451856Y-58239057D01*
X96451856Y-58334295D01*
X96404237Y-58477152D01*
X95832809Y-59048580D01*
X96451856Y-59048580D01*
%TO.C,J1*%
X54220599Y-92086180D02*
X54220599Y-92800466D01*
X54172980Y-92943323D01*
X54077742Y-93038561D01*
X53934885Y-93086180D01*
X53839647Y-93086180D01*
X55220599Y-93086180D02*
X54649171Y-93086180D01*
X54934885Y-93086180D02*
X54934885Y-92086180D01*
X54839647Y-92229038D01*
X54744409Y-92324276D01*
X54649171Y-92371895D01*
X50403294Y-74656266D02*
X50879485Y-74656266D01*
X50308056Y-74941980D02*
X50641390Y-73941980D01*
X50974723Y-74941980D01*
X51165199Y-73941980D02*
X51498533Y-74941980D01*
X51831866Y-73941980D01*
X52736628Y-74941980D02*
X52403294Y-74465790D01*
X52165199Y-74941980D02*
X52165199Y-73941980D01*
X52546152Y-73941980D01*
X52641390Y-73989600D01*
X52689009Y-74037219D01*
X52736628Y-74132457D01*
X52736628Y-74275314D01*
X52689009Y-74370552D01*
X52641390Y-74418171D01*
X52546152Y-74465790D01*
X52165199Y-74465790D01*
X53165199Y-74561028D02*
X53927104Y-74561028D01*
X54403294Y-74941980D02*
X54403294Y-73941980D01*
X54831866Y-74894361D02*
X54974723Y-74941980D01*
X55212818Y-74941980D01*
X55308056Y-74894361D01*
X55355675Y-74846742D01*
X55403294Y-74751504D01*
X55403294Y-74656266D01*
X55355675Y-74561028D01*
X55308056Y-74513409D01*
X55212818Y-74465790D01*
X55022342Y-74418171D01*
X54927104Y-74370552D01*
X54879485Y-74322933D01*
X54831866Y-74227695D01*
X54831866Y-74132457D01*
X54879485Y-74037219D01*
X54927104Y-73989600D01*
X55022342Y-73941980D01*
X55260437Y-73941980D01*
X55403294Y-73989600D01*
X55831866Y-74941980D02*
X55831866Y-73941980D01*
X56212818Y-73941980D01*
X56308056Y-73989600D01*
X56355675Y-74037219D01*
X56403294Y-74132457D01*
X56403294Y-74275314D01*
X56355675Y-74370552D01*
X56308056Y-74418171D01*
X56212818Y-74465790D01*
X55831866Y-74465790D01*
X56831866Y-74561028D02*
X57593771Y-74561028D01*
X58498533Y-73941980D02*
X58308056Y-73941980D01*
X58212818Y-73989600D01*
X58165199Y-74037219D01*
X58069961Y-74180076D01*
X58022342Y-74370552D01*
X58022342Y-74751504D01*
X58069961Y-74846742D01*
X58117580Y-74894361D01*
X58212818Y-74941980D01*
X58403294Y-74941980D01*
X58498533Y-74894361D01*
X58546152Y-74846742D01*
X58593771Y-74751504D01*
X58593771Y-74513409D01*
X58546152Y-74418171D01*
X58498533Y-74370552D01*
X58403294Y-74322933D01*
X58212818Y-74322933D01*
X58117580Y-74370552D01*
X58069961Y-74418171D01*
X58022342Y-74513409D01*
%TO.C,Y1*%
X77675121Y-113490788D02*
X78151311Y-113490788D01*
X77151311Y-113824121D02*
X77675121Y-113490788D01*
X77151311Y-113157455D01*
X78151311Y-112300312D02*
X78151311Y-112871740D01*
X78151311Y-112586026D02*
X77151311Y-112586026D01*
X77294169Y-112681264D01*
X77389407Y-112776502D01*
X77437026Y-112871740D01*
%TO.C,Q1*%
X90958493Y-140759618D02*
X90863255Y-140711999D01*
X90768017Y-140616760D01*
X90625160Y-140473903D01*
X90529922Y-140426284D01*
X90434684Y-140426284D01*
X90482303Y-140664379D02*
X90387065Y-140616760D01*
X90291827Y-140521522D01*
X90244208Y-140331046D01*
X90244208Y-139997713D01*
X90291827Y-139807237D01*
X90387065Y-139711999D01*
X90482303Y-139664379D01*
X90672779Y-139664379D01*
X90768017Y-139711999D01*
X90863255Y-139807237D01*
X90910874Y-139997713D01*
X90910874Y-140331046D01*
X90863255Y-140521522D01*
X90768017Y-140616760D01*
X90672779Y-140664379D01*
X90482303Y-140664379D01*
X91863255Y-140664379D02*
X91291827Y-140664379D01*
X91577541Y-140664379D02*
X91577541Y-139664379D01*
X91482303Y-139807237D01*
X91387065Y-139902475D01*
X91291827Y-139950094D01*
%TO.C,R4*%
X57928312Y-112256865D02*
X57452122Y-112590199D01*
X57928312Y-112828294D02*
X56928312Y-112828294D01*
X56928312Y-112447341D01*
X56975932Y-112352103D01*
X57023551Y-112304484D01*
X57118789Y-112256865D01*
X57261646Y-112256865D01*
X57356884Y-112304484D01*
X57404503Y-112352103D01*
X57452122Y-112447341D01*
X57452122Y-112828294D01*
X57261646Y-111399722D02*
X57928312Y-111399722D01*
X56880693Y-111637818D02*
X57594979Y-111875913D01*
X57594979Y-111256865D01*
%TO.C,H3*%
X113939228Y-133141980D02*
X113939228Y-132141980D01*
X113939228Y-132618171D02*
X114510656Y-132618171D01*
X114510656Y-133141980D02*
X114510656Y-132141980D01*
X114891609Y-132141980D02*
X115510656Y-132141980D01*
X115177323Y-132522933D01*
X115320180Y-132522933D01*
X115415418Y-132570552D01*
X115463037Y-132618171D01*
X115510656Y-132713409D01*
X115510656Y-132951504D01*
X115463037Y-133046742D01*
X115415418Y-133094361D01*
X115320180Y-133141980D01*
X115034466Y-133141980D01*
X114939228Y-133094361D01*
X114891609Y-133046742D01*
%TO.C,C1*%
X104412074Y-108417565D02*
X104459693Y-108465184D01*
X104507312Y-108608041D01*
X104507312Y-108703279D01*
X104459693Y-108846137D01*
X104364455Y-108941375D01*
X104269217Y-108988994D01*
X104078741Y-109036613D01*
X103935884Y-109036613D01*
X103745408Y-108988994D01*
X103650170Y-108941375D01*
X103554932Y-108846137D01*
X103507312Y-108703279D01*
X103507312Y-108608041D01*
X103554932Y-108465184D01*
X103602551Y-108417565D01*
X104507312Y-107465184D02*
X104507312Y-108036613D01*
X104507312Y-107750899D02*
X103507312Y-107750899D01*
X103650170Y-107846137D01*
X103745408Y-107941375D01*
X103793027Y-108036613D01*
%TO.C,C4*%
X106827075Y-78424066D02*
X106874694Y-78471685D01*
X106922313Y-78614542D01*
X106922313Y-78709780D01*
X106874694Y-78852638D01*
X106779456Y-78947876D01*
X106684218Y-78995495D01*
X106493742Y-79043114D01*
X106350885Y-79043114D01*
X106160409Y-78995495D01*
X106065171Y-78947876D01*
X105969933Y-78852638D01*
X105922313Y-78709780D01*
X105922313Y-78614542D01*
X105969933Y-78471685D01*
X106017552Y-78424066D01*
X106255647Y-77566923D02*
X106922313Y-77566923D01*
X105874694Y-77805019D02*
X106588980Y-78043114D01*
X106588980Y-77424066D01*
%TO.C,R6*%
X108819465Y-92858579D02*
X108486132Y-92382389D01*
X108248036Y-92858579D02*
X108248036Y-91858579D01*
X108628989Y-91858579D01*
X108724227Y-91906199D01*
X108771846Y-91953818D01*
X108819465Y-92049056D01*
X108819465Y-92191913D01*
X108771846Y-92287151D01*
X108724227Y-92334770D01*
X108628989Y-92382389D01*
X108248036Y-92382389D01*
X109676608Y-91858579D02*
X109486132Y-91858579D01*
X109390893Y-91906199D01*
X109343274Y-91953818D01*
X109248036Y-92096675D01*
X109200417Y-92287151D01*
X109200417Y-92668103D01*
X109248036Y-92763341D01*
X109295655Y-92810960D01*
X109390893Y-92858579D01*
X109581370Y-92858579D01*
X109676608Y-92810960D01*
X109724227Y-92763341D01*
X109771846Y-92668103D01*
X109771846Y-92430008D01*
X109724227Y-92334770D01*
X109676608Y-92287151D01*
X109581370Y-92239532D01*
X109390893Y-92239532D01*
X109295655Y-92287151D01*
X109248036Y-92334770D01*
X109200417Y-92430008D01*
%TO.C,C6*%
X84856473Y-121566664D02*
X84904092Y-121614283D01*
X84951711Y-121757140D01*
X84951711Y-121852378D01*
X84904092Y-121995236D01*
X84808854Y-122090474D01*
X84713616Y-122138093D01*
X84523140Y-122185712D01*
X84380283Y-122185712D01*
X84189807Y-122138093D01*
X84094569Y-122090474D01*
X83999331Y-121995236D01*
X83951711Y-121852378D01*
X83951711Y-121757140D01*
X83999331Y-121614283D01*
X84046950Y-121566664D01*
X83951711Y-120709521D02*
X83951711Y-120899998D01*
X83999331Y-120995236D01*
X84046950Y-121042855D01*
X84189807Y-121138093D01*
X84380283Y-121185712D01*
X84761235Y-121185712D01*
X84856473Y-121138093D01*
X84904092Y-121090474D01*
X84951711Y-120995236D01*
X84951711Y-120804759D01*
X84904092Y-120709521D01*
X84856473Y-120661902D01*
X84761235Y-120614283D01*
X84523140Y-120614283D01*
X84427902Y-120661902D01*
X84380283Y-120709521D01*
X84332664Y-120804759D01*
X84332664Y-120995236D01*
X84380283Y-121090474D01*
X84427902Y-121138093D01*
X84523140Y-121185712D01*
%TO.C,R3*%
X59518065Y-123262379D02*
X59184732Y-122786189D01*
X58946636Y-123262379D02*
X58946636Y-122262379D01*
X59327589Y-122262379D01*
X59422827Y-122309999D01*
X59470446Y-122357618D01*
X59518065Y-122452856D01*
X59518065Y-122595713D01*
X59470446Y-122690951D01*
X59422827Y-122738570D01*
X59327589Y-122786189D01*
X58946636Y-122786189D01*
X59851398Y-122262379D02*
X60470446Y-122262379D01*
X60137112Y-122643332D01*
X60279970Y-122643332D01*
X60375208Y-122690951D01*
X60422827Y-122738570D01*
X60470446Y-122833808D01*
X60470446Y-123071903D01*
X60422827Y-123167141D01*
X60375208Y-123214760D01*
X60279970Y-123262379D01*
X59994255Y-123262379D01*
X59899017Y-123214760D01*
X59851398Y-123167141D01*
%TO.C,J7*%
X118065113Y-110899533D02*
X118779399Y-110899533D01*
X118922256Y-110947152D01*
X119017494Y-111042390D01*
X119065113Y-111185247D01*
X119065113Y-111280485D01*
X118065113Y-110518580D02*
X118065113Y-109851914D01*
X119065113Y-110280485D01*
%TO.C,J4*%
X56429912Y-126037932D02*
X57144198Y-126037932D01*
X57287055Y-126085551D01*
X57382293Y-126180789D01*
X57429912Y-126323646D01*
X57429912Y-126418884D01*
X56763246Y-125133170D02*
X57429912Y-125133170D01*
X56382293Y-125371265D02*
X57096579Y-125609360D01*
X57096579Y-124990313D01*
X49229912Y-126347456D02*
X49229912Y-126823646D01*
X48229912Y-126823646D01*
X48706103Y-126014122D02*
X48706103Y-125680789D01*
X49229912Y-125537932D02*
X49229912Y-126014122D01*
X48229912Y-126014122D01*
X48229912Y-125537932D01*
X49229912Y-125109360D02*
X48229912Y-125109360D01*
X48229912Y-124871265D01*
X48277532Y-124728408D01*
X48372770Y-124633170D01*
X48468008Y-124585551D01*
X48658484Y-124537932D01*
X48801341Y-124537932D01*
X48991817Y-124585551D01*
X49087055Y-124633170D01*
X49182293Y-124728408D01*
X49229912Y-124871265D01*
X49229912Y-125109360D01*
%TO.C,C5*%
X84831073Y-104840064D02*
X84878692Y-104887683D01*
X84926311Y-105030540D01*
X84926311Y-105125778D01*
X84878692Y-105268636D01*
X84783454Y-105363874D01*
X84688216Y-105411493D01*
X84497740Y-105459112D01*
X84354883Y-105459112D01*
X84164407Y-105411493D01*
X84069169Y-105363874D01*
X83973931Y-105268636D01*
X83926311Y-105125778D01*
X83926311Y-105030540D01*
X83973931Y-104887683D01*
X84021550Y-104840064D01*
X83926311Y-103935302D02*
X83926311Y-104411493D01*
X84402502Y-104459112D01*
X84354883Y-104411493D01*
X84307264Y-104316255D01*
X84307264Y-104078159D01*
X84354883Y-103982921D01*
X84402502Y-103935302D01*
X84497740Y-103887683D01*
X84735835Y-103887683D01*
X84831073Y-103935302D01*
X84878692Y-103982921D01*
X84926311Y-104078159D01*
X84926311Y-104316255D01*
X84878692Y-104411493D01*
X84831073Y-104459112D01*
%TO.C,D4*%
X106695913Y-69856495D02*
X105695913Y-69856495D01*
X105695913Y-69618400D01*
X105743533Y-69475542D01*
X105838771Y-69380304D01*
X105934009Y-69332685D01*
X106124485Y-69285066D01*
X106267342Y-69285066D01*
X106457818Y-69332685D01*
X106553056Y-69380304D01*
X106648294Y-69475542D01*
X106695913Y-69618400D01*
X106695913Y-69856495D01*
X106029247Y-68427923D02*
X106695913Y-68427923D01*
X105648294Y-68666019D02*
X106362580Y-68904114D01*
X106362580Y-68285066D01*
%TO.C,H1*%
X46426028Y-66466980D02*
X46426028Y-65466980D01*
X46426028Y-65943171D02*
X46997456Y-65943171D01*
X46997456Y-66466980D02*
X46997456Y-65466980D01*
X47997456Y-66466980D02*
X47426028Y-66466980D01*
X47711742Y-66466980D02*
X47711742Y-65466980D01*
X47616504Y-65609838D01*
X47521266Y-65705076D01*
X47426028Y-65752695D01*
%TO.C,C2*%
X90238873Y-108675464D02*
X90286492Y-108723083D01*
X90334111Y-108865940D01*
X90334111Y-108961178D01*
X90286492Y-109104036D01*
X90191254Y-109199274D01*
X90096016Y-109246893D01*
X89905540Y-109294512D01*
X89762683Y-109294512D01*
X89572207Y-109246893D01*
X89476969Y-109199274D01*
X89381731Y-109104036D01*
X89334111Y-108961178D01*
X89334111Y-108865940D01*
X89381731Y-108723083D01*
X89429350Y-108675464D01*
X89429350Y-108294512D02*
X89381731Y-108246893D01*
X89334111Y-108151655D01*
X89334111Y-107913559D01*
X89381731Y-107818321D01*
X89429350Y-107770702D01*
X89524588Y-107723083D01*
X89619826Y-107723083D01*
X89762683Y-107770702D01*
X90334111Y-108342131D01*
X90334111Y-107723083D01*
%TO.C,D3*%
X79698437Y-82277380D02*
X79698437Y-81277380D01*
X79936533Y-81277380D01*
X80079390Y-81325000D01*
X80174628Y-81420238D01*
X80222247Y-81515476D01*
X80269866Y-81705952D01*
X80269866Y-81848809D01*
X80222247Y-82039285D01*
X80174628Y-82134523D01*
X80079390Y-82229761D01*
X79936533Y-82277380D01*
X79698437Y-82277380D01*
X80603199Y-81277380D02*
X81222247Y-81277380D01*
X80888913Y-81658333D01*
X81031771Y-81658333D01*
X81127009Y-81705952D01*
X81174628Y-81753571D01*
X81222247Y-81848809D01*
X81222247Y-82086904D01*
X81174628Y-82182142D01*
X81127009Y-82229761D01*
X81031771Y-82277380D01*
X80746056Y-82277380D01*
X80650818Y-82229761D01*
X80603199Y-82182142D01*
X87794628Y-81157380D02*
X87794628Y-80157380D01*
X88366056Y-81157380D02*
X87937485Y-80585952D01*
X88366056Y-80157380D02*
X87794628Y-80728809D01*
%TO.C,D1*%
X44319512Y-88596694D02*
X43319512Y-88596694D01*
X43319512Y-88358599D01*
X43367132Y-88215741D01*
X43462370Y-88120503D01*
X43557608Y-88072884D01*
X43748084Y-88025265D01*
X43890941Y-88025265D01*
X44081417Y-88072884D01*
X44176655Y-88120503D01*
X44271893Y-88215741D01*
X44319512Y-88358599D01*
X44319512Y-88596694D01*
X44319512Y-87072884D02*
X44319512Y-87644313D01*
X44319512Y-87358599D02*
X43319512Y-87358599D01*
X43462370Y-87453837D01*
X43557608Y-87549075D01*
X43605227Y-87644313D01*
%TO.C,RV1*%
X102081694Y-137487780D02*
X101748361Y-137011590D01*
X101510266Y-137487780D02*
X101510266Y-136487780D01*
X101891218Y-136487780D01*
X101986456Y-136535400D01*
X102034075Y-136583019D01*
X102081694Y-136678257D01*
X102081694Y-136821114D01*
X102034075Y-136916352D01*
X101986456Y-136963971D01*
X101891218Y-137011590D01*
X101510266Y-137011590D01*
X102367409Y-136487780D02*
X102700742Y-137487780D01*
X103034075Y-136487780D01*
X103891218Y-137487780D02*
X103319790Y-137487780D01*
X103605504Y-137487780D02*
X103605504Y-136487780D01*
X103510266Y-136630638D01*
X103415028Y-136725876D01*
X103319790Y-136773495D01*
%TO.C,L2*%
X92268113Y-78220866D02*
X92268113Y-78697057D01*
X91268113Y-78697057D01*
X91363352Y-77935152D02*
X91315733Y-77887533D01*
X91268113Y-77792295D01*
X91268113Y-77554200D01*
X91315733Y-77458961D01*
X91363352Y-77411342D01*
X91458590Y-77363723D01*
X91553828Y-77363723D01*
X91696685Y-77411342D01*
X92268113Y-77982771D01*
X92268113Y-77363723D01*
%TO.C,U1*%
X97617027Y-88724779D02*
X97617027Y-89534303D01*
X97664646Y-89629541D01*
X97712265Y-89677160D01*
X97807503Y-89724779D01*
X97997979Y-89724779D01*
X98093217Y-89677160D01*
X98140836Y-89629541D01*
X98188455Y-89534303D01*
X98188455Y-88724779D01*
X99188455Y-89724779D02*
X98617027Y-89724779D01*
X98902741Y-89724779D02*
X98902741Y-88724779D01*
X98807503Y-88867637D01*
X98712265Y-88962875D01*
X98617027Y-89010494D01*
%TO.C,J2*%
X65827913Y-67643333D02*
X66542199Y-67643333D01*
X66685056Y-67690952D01*
X66780294Y-67786190D01*
X66827913Y-67929047D01*
X66827913Y-68024285D01*
X65923152Y-67214761D02*
X65875533Y-67167142D01*
X65827913Y-67071904D01*
X65827913Y-66833809D01*
X65875533Y-66738571D01*
X65923152Y-66690952D01*
X66018390Y-66643333D01*
X66113628Y-66643333D01*
X66256485Y-66690952D01*
X66827913Y-67262380D01*
X66827913Y-66643333D01*
X55809713Y-68079809D02*
X56809713Y-67746476D01*
X55809713Y-67413142D01*
X56809713Y-67079809D02*
X56143047Y-67079809D01*
X55809713Y-67079809D02*
X55857333Y-67127428D01*
X55904952Y-67079809D01*
X55857333Y-67032190D01*
X55809713Y-67079809D01*
X55904952Y-67079809D01*
X56143047Y-66603619D02*
X56809713Y-66603619D01*
X56238285Y-66603619D02*
X56190666Y-66556000D01*
X56143047Y-66460761D01*
X56143047Y-66317904D01*
X56190666Y-66222666D01*
X56285904Y-66175047D01*
X56809713Y-66175047D01*
%TO.C,J3*%
X56328312Y-101323732D02*
X57042598Y-101323732D01*
X57185455Y-101371351D01*
X57280693Y-101466589D01*
X57328312Y-101609446D01*
X57328312Y-101704684D01*
X56328312Y-100942779D02*
X56328312Y-100323732D01*
X56709265Y-100657065D01*
X56709265Y-100514208D01*
X56756884Y-100418970D01*
X56804503Y-100371351D01*
X56899741Y-100323732D01*
X57137836Y-100323732D01*
X57233074Y-100371351D01*
X57280693Y-100418970D01*
X57328312Y-100514208D01*
X57328312Y-100799922D01*
X57280693Y-100895160D01*
X57233074Y-100942779D01*
X48102712Y-103774427D02*
X48912236Y-103774427D01*
X49007474Y-103726808D01*
X49055093Y-103679189D01*
X49102712Y-103583951D01*
X49102712Y-103393475D01*
X49055093Y-103298237D01*
X49007474Y-103250618D01*
X48912236Y-103202999D01*
X48102712Y-103202999D01*
X49102712Y-102583951D02*
X49055093Y-102679189D01*
X48959855Y-102726808D01*
X48102712Y-102726808D01*
X48436046Y-102345856D02*
X48436046Y-101964903D01*
X48102712Y-102202999D02*
X48959855Y-102202999D01*
X49055093Y-102155379D01*
X49102712Y-102060141D01*
X49102712Y-101964903D01*
X49102712Y-101631570D02*
X48436046Y-101631570D01*
X48626522Y-101631570D02*
X48531284Y-101583951D01*
X48483665Y-101536332D01*
X48436046Y-101441094D01*
X48436046Y-101345856D01*
X49102712Y-100583951D02*
X48578903Y-100583951D01*
X48483665Y-100631570D01*
X48436046Y-100726808D01*
X48436046Y-100917284D01*
X48483665Y-101012522D01*
X49055093Y-100583951D02*
X49102712Y-100679189D01*
X49102712Y-100917284D01*
X49055093Y-101012522D01*
X48959855Y-101060141D01*
X48864617Y-101060141D01*
X48769379Y-101012522D01*
X48721760Y-100917284D01*
X48721760Y-100679189D01*
X48674141Y-100583951D01*
X49055093Y-100155379D02*
X49102712Y-100060141D01*
X49102712Y-99869665D01*
X49055093Y-99774427D01*
X48959855Y-99726808D01*
X48912236Y-99726808D01*
X48816998Y-99774427D01*
X48769379Y-99869665D01*
X48769379Y-100012522D01*
X48721760Y-100107760D01*
X48626522Y-100155379D01*
X48578903Y-100155379D01*
X48483665Y-100107760D01*
X48436046Y-100012522D01*
X48436046Y-99869665D01*
X48483665Y-99774427D01*
X49102712Y-99155379D02*
X49055093Y-99250618D01*
X49007474Y-99298237D01*
X48912236Y-99345856D01*
X48626522Y-99345856D01*
X48531284Y-99298237D01*
X48483665Y-99250618D01*
X48436046Y-99155379D01*
X48436046Y-99012522D01*
X48483665Y-98917284D01*
X48531284Y-98869665D01*
X48626522Y-98822046D01*
X48912236Y-98822046D01*
X49007474Y-98869665D01*
X49055093Y-98917284D01*
X49102712Y-99012522D01*
X49102712Y-99155379D01*
X48436046Y-98393475D02*
X49102712Y-98393475D01*
X48531284Y-98393475D02*
X48483665Y-98345856D01*
X48436046Y-98250618D01*
X48436046Y-98107760D01*
X48483665Y-98012522D01*
X48578903Y-97964903D01*
X49102712Y-97964903D01*
X49102712Y-97488713D02*
X48436046Y-97488713D01*
X48102712Y-97488713D02*
X48150332Y-97536332D01*
X48197951Y-97488713D01*
X48150332Y-97441094D01*
X48102712Y-97488713D01*
X48197951Y-97488713D01*
X49055093Y-96583951D02*
X49102712Y-96679189D01*
X49102712Y-96869665D01*
X49055093Y-96964903D01*
X49007474Y-97012522D01*
X48912236Y-97060141D01*
X48626522Y-97060141D01*
X48531284Y-97012522D01*
X48483665Y-96964903D01*
X48436046Y-96869665D01*
X48436046Y-96679189D01*
X48483665Y-96583951D01*
%TO.C,J6*%
X62098312Y-133505532D02*
X62812598Y-133505532D01*
X62955455Y-133553151D01*
X63050693Y-133648389D01*
X63098312Y-133791246D01*
X63098312Y-133886484D01*
X62098312Y-132600770D02*
X62098312Y-132791246D01*
X62145932Y-132886484D01*
X62193551Y-132934103D01*
X62336408Y-133029341D01*
X62526884Y-133076960D01*
X62907836Y-133076960D01*
X63003074Y-133029341D01*
X63050693Y-132981722D01*
X63098312Y-132886484D01*
X63098312Y-132696008D01*
X63050693Y-132600770D01*
X63003074Y-132553151D01*
X62907836Y-132505532D01*
X62669741Y-132505532D01*
X62574503Y-132553151D01*
X62526884Y-132600770D01*
X62479265Y-132696008D01*
X62479265Y-132886484D01*
X62526884Y-132981722D01*
X62574503Y-133029341D01*
X62669741Y-133076960D01*
%TO.C,H4*%
X46375228Y-134809380D02*
X46375228Y-133809380D01*
X46375228Y-134285571D02*
X46946656Y-134285571D01*
X46946656Y-134809380D02*
X46946656Y-133809380D01*
X47851418Y-134142714D02*
X47851418Y-134809380D01*
X47613323Y-133761761D02*
X47375228Y-134476047D01*
X47994275Y-134476047D01*
%TO.C,U3*%
X76007027Y-138749579D02*
X76007027Y-139559103D01*
X76054646Y-139654341D01*
X76102265Y-139701960D01*
X76197503Y-139749579D01*
X76387979Y-139749579D01*
X76483217Y-139701960D01*
X76530836Y-139654341D01*
X76578455Y-139559103D01*
X76578455Y-138749579D01*
X76959408Y-138749579D02*
X77578455Y-138749579D01*
X77245122Y-139130532D01*
X77387979Y-139130532D01*
X77483217Y-139178151D01*
X77530836Y-139225770D01*
X77578455Y-139321008D01*
X77578455Y-139559103D01*
X77530836Y-139654341D01*
X77483217Y-139701960D01*
X77387979Y-139749579D01*
X77102265Y-139749579D01*
X77007027Y-139701960D01*
X76959408Y-139654341D01*
D13*
%TO.C,RV2*%
X73472200Y-114733600D02*
X73472200Y-124503600D01*
X68402200Y-114733600D02*
X68402200Y-124503600D01*
X73472200Y-114733600D02*
X68402200Y-114733600D01*
X73472200Y-124503600D02*
X68402200Y-124503600D01*
%TO.C,R1*%
X61989197Y-81888000D02*
X61535069Y-81888000D01*
X61989197Y-80418000D02*
X61535069Y-80418000D01*
%TO.C,R2*%
X90267932Y-131159063D02*
X90267932Y-130704935D01*
X91737932Y-131159063D02*
X91737932Y-130704935D01*
%TO.C,L1*%
X86228931Y-108795450D02*
X86228931Y-108272946D01*
X87648931Y-108795450D02*
X87648931Y-108272946D01*
%TO.C,R5*%
X107768532Y-63933335D02*
X107768532Y-64387463D01*
X109238532Y-63933335D02*
X109238532Y-64387463D01*
%TO.C,J5*%
X49867532Y-109744999D02*
X49867532Y-120124999D01*
X50867532Y-111124999D02*
X51397532Y-111374999D01*
X55287532Y-117944999D02*
X55287532Y-119544999D01*
X50867532Y-111124999D02*
X50867532Y-118744999D01*
X54857532Y-109454999D02*
X50857532Y-109454999D01*
X55287532Y-112864999D02*
X55287532Y-114464999D01*
X55887532Y-117944999D02*
X55287532Y-117944999D01*
X55287532Y-117004999D02*
X55887532Y-117004999D01*
X55287532Y-110324999D02*
X55287532Y-111924999D01*
X55287532Y-111924999D02*
X55887532Y-111924999D01*
X49867532Y-120124999D02*
X55887532Y-120124999D01*
X55287532Y-115404999D02*
X55287532Y-117004999D01*
X55887532Y-109744999D02*
X49867532Y-109744999D01*
X55887532Y-112864999D02*
X55287532Y-112864999D01*
X50867532Y-118744999D02*
X49867532Y-118744999D01*
X55887532Y-115404999D02*
X55287532Y-115404999D01*
X51397532Y-111374999D02*
X51397532Y-118494999D01*
X49867532Y-111124999D02*
X50867532Y-111124999D01*
X49867532Y-111374999D02*
X50867532Y-111374999D01*
X55887532Y-110324999D02*
X55287532Y-110324999D01*
X51397532Y-118494999D02*
X50867532Y-118744999D01*
X49867532Y-118494999D02*
X50867532Y-118494999D01*
X55887532Y-120124999D02*
X55887532Y-109744999D01*
X55287532Y-119544999D02*
X55887532Y-119544999D01*
X55287532Y-114464999D02*
X55887532Y-114464999D01*
%TO.C,C3*%
X83377533Y-66116200D02*
G75*
G03*
X83377533Y-66116200I-6370000J0D01*
G01*
%TO.C,D2*%
X83680932Y-136096199D02*
X85920932Y-136096199D01*
X83680932Y-132576199D02*
X83680932Y-136816199D01*
X85920932Y-132576199D02*
X83680932Y-132576199D01*
X85920932Y-136816199D02*
X85920932Y-132576199D01*
X83680932Y-136816199D02*
X85920932Y-136816199D01*
X83680932Y-135976199D02*
X85920932Y-135976199D01*
X83680932Y-136216199D02*
X85920932Y-136216199D01*
X84800932Y-137466199D02*
X84800932Y-136816199D01*
X84800932Y-131926199D02*
X84800932Y-132576199D01*
%TO.C,U2*%
X92692333Y-70446200D02*
X92692333Y-69496200D01*
X94192333Y-60046200D02*
X92692333Y-60046200D01*
X94192333Y-70446200D02*
X92692333Y-70446200D01*
X92692333Y-60996200D02*
X87567333Y-60996200D01*
X92692333Y-60046200D02*
X92692333Y-60996200D01*
X92692333Y-69496200D02*
X91592333Y-69496200D01*
%TO.C,J1*%
X57524533Y-90117600D02*
X51024533Y-90117600D01*
X49714533Y-91417600D02*
X49714533Y-75917600D01*
X57524533Y-85717600D02*
X57524533Y-90117600D01*
X58834533Y-85717600D02*
X57524533Y-85717600D01*
X60224533Y-85707600D02*
X59224533Y-86207600D01*
X59224533Y-86207600D02*
X60224533Y-86707600D01*
X49714533Y-75917600D02*
X58834533Y-75917600D01*
X57524533Y-77217600D02*
X57524533Y-81617600D01*
X60224533Y-86707600D02*
X60224533Y-85707600D01*
X58834533Y-91417600D02*
X49714533Y-91417600D01*
X51024533Y-90117600D02*
X51024533Y-77217600D01*
X57524533Y-81617600D02*
X57524533Y-81617600D01*
X57524533Y-81617600D02*
X58834533Y-81617600D01*
X51024533Y-77217600D02*
X57524533Y-77217600D01*
X58834533Y-75917600D02*
X58834533Y-91417600D01*
%TO.C,Y1*%
X83748931Y-116139598D02*
X83748931Y-109889598D01*
X78698931Y-116139598D02*
X78698931Y-109889598D01*
X78698931Y-116139598D02*
G75*
G03*
X83748931Y-116139598I2525000J0D01*
G01*
X83748931Y-109889598D02*
G75*
G03*
X78698931Y-109889598I-2525000J0D01*
G01*
%TO.C,Q1*%
X92853732Y-134801999D02*
X89253732Y-134801999D01*
X89215254Y-134813521D02*
G75*
G03*
X91053732Y-139251999I1838478J-1838478D01*
G01*
X91053732Y-139252000D02*
G75*
G03*
X92892210Y-134813521I0J2600001D01*
G01*
%TO.C,R4*%
X59860932Y-112317263D02*
X59860932Y-111863135D01*
X58390932Y-112317263D02*
X58390932Y-111863135D01*
%TO.C,C1*%
X104999932Y-108512151D02*
X104999932Y-107989647D01*
X106469932Y-108512151D02*
X106469932Y-107989647D01*
%TO.C,C4*%
X117839933Y-78257400D02*
G75*
G03*
X117839933Y-78257400I-5120000J0D01*
G01*
%TO.C,R6*%
X108759068Y-93321199D02*
X109213196Y-93321199D01*
X108759068Y-94791199D02*
X109213196Y-94791199D01*
%TO.C,C6*%
X83369331Y-121399998D02*
G75*
G03*
X83369331Y-121399998I-2120000J0D01*
G01*
%TO.C,R3*%
X59457668Y-125194999D02*
X59911796Y-125194999D01*
X59457668Y-123724999D02*
X59911796Y-123724999D01*
%TO.C,J7*%
X111721933Y-122821600D02*
X112321933Y-122821600D01*
X116741933Y-129641600D02*
X116741933Y-124561600D01*
X112321933Y-118681600D02*
X111721933Y-118681600D01*
X112321933Y-127901600D02*
X112321933Y-126301600D01*
X112321933Y-102501600D02*
X112321933Y-100901600D01*
X112321933Y-120281600D02*
X112321933Y-118681600D01*
X112321933Y-105041600D02*
X112321933Y-103441600D01*
X111721933Y-107581600D02*
X112321933Y-107581600D01*
X112321933Y-108521600D02*
X111721933Y-108521600D01*
X112321933Y-98361600D02*
X111721933Y-98361600D01*
X111721933Y-131021600D02*
X117741933Y-131021600D01*
X111721933Y-125361600D02*
X112321933Y-125361600D01*
X111721933Y-110121600D02*
X112321933Y-110121600D01*
X116741933Y-91541600D02*
X116211933Y-91791600D01*
X111721933Y-102501600D02*
X112321933Y-102501600D01*
X112321933Y-105981600D02*
X111721933Y-105981600D01*
X111721933Y-97421600D02*
X112321933Y-97421600D01*
X112321933Y-125361600D02*
X112321933Y-123761600D01*
X111721933Y-90161600D02*
X111721933Y-131021600D01*
X112321933Y-110121600D02*
X112321933Y-108521600D01*
X112321933Y-128841600D02*
X111721933Y-128841600D01*
X117741933Y-131021600D02*
X117741933Y-90161600D01*
X116741933Y-124561600D02*
X117741933Y-124561600D01*
X112321933Y-123761600D02*
X111721933Y-123761600D01*
X117741933Y-129391600D02*
X116741933Y-129391600D01*
X111721933Y-105041600D02*
X112321933Y-105041600D01*
X117741933Y-90161600D02*
X111721933Y-90161600D01*
X112321933Y-92341600D02*
X112321933Y-90741600D01*
X111721933Y-99961600D02*
X112321933Y-99961600D01*
X112321933Y-113601600D02*
X111721933Y-113601600D01*
X116741933Y-96621600D02*
X117741933Y-96621600D01*
X112751933Y-131311600D02*
X116751933Y-131311600D01*
X112321933Y-94881600D02*
X112321933Y-93281600D01*
X112321933Y-97421600D02*
X112321933Y-95821600D01*
X112321933Y-117741600D02*
X112321933Y-116141600D01*
X112321933Y-111061600D02*
X111721933Y-111061600D01*
X117741933Y-91791600D02*
X116741933Y-91791600D01*
X112321933Y-112661600D02*
X112321933Y-111061600D01*
X111721933Y-117741600D02*
X112321933Y-117741600D01*
X112321933Y-126301600D02*
X111721933Y-126301600D01*
X116211933Y-91791600D02*
X116211933Y-96621600D01*
X112321933Y-116141600D02*
X111721933Y-116141600D01*
X112321933Y-121221600D02*
X111721933Y-121221600D01*
X112321933Y-100901600D02*
X111721933Y-100901600D01*
X111721933Y-127901600D02*
X112321933Y-127901600D01*
X116741933Y-91541600D02*
X116741933Y-96621600D01*
X117741933Y-91541600D02*
X116741933Y-91541600D01*
X111721933Y-115201600D02*
X112321933Y-115201600D01*
X112321933Y-93281600D02*
X111721933Y-93281600D01*
X111721933Y-92341600D02*
X112321933Y-92341600D01*
X111721933Y-120281600D02*
X112321933Y-120281600D01*
X112321933Y-95821600D02*
X111721933Y-95821600D01*
X116211933Y-124561600D02*
X116741933Y-124561600D01*
X112321933Y-130441600D02*
X112321933Y-128841600D01*
X111721933Y-94881600D02*
X112321933Y-94881600D01*
X112321933Y-115201600D02*
X112321933Y-113601600D01*
X116211933Y-129391600D02*
X116211933Y-124561600D01*
X117741933Y-129641600D02*
X116741933Y-129641600D01*
X116211933Y-96621600D02*
X116741933Y-96621600D01*
X111721933Y-112661600D02*
X112321933Y-112661600D01*
X112321933Y-103441600D02*
X111721933Y-103441600D01*
X116741933Y-129641600D02*
X116211933Y-129391600D01*
X111721933Y-130441600D02*
X112321933Y-130441600D01*
X112321933Y-99961600D02*
X112321933Y-98361600D01*
X112321933Y-90741600D02*
X111721933Y-90741600D01*
X112321933Y-122821600D02*
X112321933Y-121221600D01*
X112321933Y-107581600D02*
X112321933Y-105981600D01*
%TO.C,J4*%
X55287532Y-126174599D02*
X55287532Y-127774599D01*
X55887532Y-128354599D02*
X55887532Y-123054599D01*
X55887532Y-126174599D02*
X55287532Y-126174599D01*
X49867532Y-128354599D02*
X55887532Y-128354599D01*
X50867532Y-124434599D02*
X50867532Y-126974599D01*
X55887532Y-123054599D02*
X49867532Y-123054599D01*
X49867532Y-123054599D02*
X49867532Y-128354599D01*
X55287532Y-127774599D02*
X55887532Y-127774599D01*
X50867532Y-124434599D02*
X51397532Y-124684599D01*
X49867532Y-124434599D02*
X50867532Y-124434599D01*
X55287532Y-125234599D02*
X55887532Y-125234599D01*
X54857532Y-122764599D02*
X50857532Y-122764599D01*
X50867532Y-126974599D02*
X49867532Y-126974599D01*
X51397532Y-124684599D02*
X51397532Y-126724599D01*
X51397532Y-126724599D02*
X50867532Y-126974599D01*
X49867532Y-124684599D02*
X50867532Y-124684599D01*
X55287532Y-123634599D02*
X55287532Y-125234599D01*
X55887532Y-123634599D02*
X55287532Y-123634599D01*
X49867532Y-126724599D02*
X50867532Y-126724599D01*
%TO.C,C5*%
X83343931Y-104673398D02*
G75*
G03*
X83343931Y-104673398I-2120000J0D01*
G01*
%TO.C,D4*%
X107243533Y-70708400D02*
X107423533Y-70708400D01*
X109598533Y-67408400D02*
X109763533Y-67408400D01*
X107243533Y-67408400D02*
X107408533Y-67408400D01*
X107243533Y-70588400D02*
X107423533Y-70588400D01*
X107243533Y-70828400D02*
X107243533Y-67408400D01*
X109583533Y-70828400D02*
X109763533Y-70828400D01*
X109583533Y-70588400D02*
X109763533Y-70588400D01*
X109583533Y-70708400D02*
X109763533Y-70708400D01*
X107243533Y-70828400D02*
X107423533Y-70828400D01*
X109763533Y-70828400D02*
X109763533Y-67408400D01*
%TO.C,C2*%
X92296731Y-108770050D02*
X92296731Y-108247546D01*
X90826731Y-108770050D02*
X90826731Y-108247546D01*
%TO.C,D3*%
X85306533Y-80825000D02*
X85306533Y-75385000D01*
X86216533Y-78105000D02*
X85306533Y-78105000D01*
X74656533Y-78105000D02*
X75566533Y-78105000D01*
X83641533Y-80825000D02*
X83641533Y-75385000D01*
X85306533Y-75385000D02*
X75566533Y-75385000D01*
X75566533Y-80825000D02*
X85306533Y-80825000D01*
X75566533Y-75385000D02*
X75566533Y-80825000D01*
X83761533Y-80825000D02*
X83761533Y-75385000D01*
X83881533Y-80825000D02*
X83881533Y-75385000D01*
%TO.C,D1*%
X46867132Y-90108599D02*
X46867132Y-86208599D01*
X44867132Y-90108599D02*
X44867132Y-86208599D01*
X44867132Y-90108599D02*
X46867132Y-90108599D01*
%TO.C,RV1*%
X97791933Y-135905400D02*
X97791933Y-130835400D01*
X107561933Y-135905400D02*
X107561933Y-130835400D01*
X107561933Y-130835400D02*
X97791933Y-130835400D01*
X107561933Y-135905400D02*
X97791933Y-135905400D01*
%TO.C,L2*%
X102515733Y-82404200D02*
X102515733Y-73704200D01*
X93815733Y-82404200D02*
X93815733Y-73704200D01*
%TO.C,U1*%
X97378932Y-90272399D02*
X95728932Y-90272399D01*
X101028932Y-90272399D02*
X99378932Y-90272399D01*
X95728932Y-125952399D02*
X101028932Y-125952399D01*
X95728932Y-90272399D02*
X95728932Y-125952399D01*
X101028932Y-125952399D02*
X101028932Y-90272399D01*
X97378932Y-90272399D02*
G75*
G03*
X99378932Y-90272399I1000000J0D01*
G01*
%TO.C,J2*%
X60795533Y-68330000D02*
X60265533Y-68580000D01*
X60265533Y-68580000D02*
X59265533Y-68580000D01*
X64685533Y-67780000D02*
X64685533Y-69380000D01*
X60795533Y-66290000D02*
X60795533Y-68330000D01*
X64685533Y-66840000D02*
X65285533Y-66840000D01*
X64685533Y-65240000D02*
X64685533Y-66840000D01*
X59265533Y-66290000D02*
X60265533Y-66290000D01*
X65285533Y-64660000D02*
X59265533Y-64660000D01*
X60265533Y-66040000D02*
X60795533Y-66290000D01*
X65285533Y-67780000D02*
X64685533Y-67780000D01*
X59265533Y-66040000D02*
X60265533Y-66040000D01*
X65285533Y-65240000D02*
X64685533Y-65240000D01*
X59265533Y-69960000D02*
X65285533Y-69960000D01*
X59265533Y-64660000D02*
X59265533Y-69960000D01*
X64255533Y-64370000D02*
X60255533Y-64370000D01*
X64685533Y-69380000D02*
X65285533Y-69380000D01*
X59265533Y-68330000D02*
X60265533Y-68330000D01*
X60265533Y-66040000D02*
X60265533Y-68580000D01*
X65285533Y-69960000D02*
X65285533Y-64660000D01*
%TO.C,J3*%
X55185932Y-97980399D02*
X55785932Y-97980399D01*
X55785932Y-96380399D02*
X55185932Y-96380399D01*
X50765932Y-97180399D02*
X51295932Y-97430399D01*
X55785932Y-101460399D02*
X55185932Y-101460399D01*
X51295932Y-97430399D02*
X51295932Y-104550399D01*
X55185932Y-105600399D02*
X55785932Y-105600399D01*
X51295932Y-104550399D02*
X50765932Y-104800399D01*
X55185932Y-96380399D02*
X55185932Y-97980399D01*
X55185932Y-100520399D02*
X55785932Y-100520399D01*
X55185932Y-103060399D02*
X55785932Y-103060399D01*
X55185932Y-101460399D02*
X55185932Y-103060399D01*
X55785932Y-95800399D02*
X49765932Y-95800399D01*
X54755932Y-95510399D02*
X50755932Y-95510399D01*
X55185932Y-98920399D02*
X55185932Y-100520399D01*
X50765932Y-104800399D02*
X49765932Y-104800399D01*
X55785932Y-104000399D02*
X55185932Y-104000399D01*
X55185932Y-104000399D02*
X55185932Y-105600399D01*
X49765932Y-104550399D02*
X50765932Y-104550399D01*
X50765932Y-97180399D02*
X50765932Y-104800399D01*
X49765932Y-97430399D02*
X50765932Y-97430399D01*
X55785932Y-106180399D02*
X55785932Y-95800399D01*
X55785932Y-98920399D02*
X55185932Y-98920399D01*
X49765932Y-106180399D02*
X55785932Y-106180399D01*
X49765932Y-97180399D02*
X50765932Y-97180399D01*
X49765932Y-95800399D02*
X49765932Y-106180399D01*
%TO.C,J6*%
X64335932Y-135242199D02*
X64335932Y-133642199D01*
X68755932Y-134442199D02*
X68225932Y-134192199D01*
X64335932Y-133642199D02*
X63735932Y-133642199D01*
X63735932Y-135242199D02*
X64335932Y-135242199D01*
X69755932Y-134192199D02*
X68755932Y-134192199D01*
X68225932Y-134192199D02*
X68225932Y-132152199D01*
X63735932Y-135822199D02*
X69755932Y-135822199D01*
X64335932Y-132702199D02*
X64335932Y-131102199D01*
X69755932Y-135822199D02*
X69755932Y-130522199D01*
X64335932Y-131102199D02*
X63735932Y-131102199D01*
X68225932Y-132152199D02*
X68755932Y-131902199D01*
X63735932Y-132702199D02*
X64335932Y-132702199D01*
X69755932Y-132152199D02*
X68755932Y-132152199D01*
X68755932Y-134442199D02*
X68755932Y-131902199D01*
X68755932Y-131902199D02*
X69755932Y-131902199D01*
X64765932Y-136112199D02*
X68765932Y-136112199D01*
X63735932Y-130522199D02*
X63735932Y-135822199D01*
X69755932Y-130522199D02*
X63735932Y-130522199D01*
X69755932Y-134442199D02*
X68755932Y-134442199D01*
%TO.C,U3*%
X74118932Y-138297199D02*
X75768932Y-138297199D01*
X77768932Y-138297199D02*
X79418932Y-138297199D01*
X79418932Y-138297199D02*
X79418932Y-130557199D01*
X79418932Y-130557199D02*
X74118932Y-130557199D01*
X74118932Y-130557199D02*
X74118932Y-138297199D01*
X77768932Y-138297199D02*
G75*
G03*
X75768932Y-138297199I-1000000J0D01*
G01*
%TD*%
M02*
