M48
; DRILL file {KiCad (6.0.0)} date Tue Mar  8 19:04:21 2022
; FORMAT={-:-/ absolute / inch / decimal}
; #@! TF.CreationDate,2022-03-08T19:04:21-06:00
; #@! TF.GenerationSoftware,Kicad,Pcbnew,(6.0.0)
; #@! TF.FileFunction,Plated,1,2,PTH
FMAT,2
INCH
; #@! TA.AperFunction,Plated,PTH,ComponentDrill
T1C0.0315
; #@! TA.AperFunction,Plated,PTH,ComponentDrill
T2C0.0469
; #@! TA.AperFunction,Plated,PTH,ComponentDrill
T3C0.0630
%
G90
G05
T1
X4.86Y-3.0666
X4.86Y-3.2634
X5.925Y-3.0366
X5.925Y-3.2334
T2
X5.1008Y-3.515
X5.1008Y-3.615
X5.9542Y-3.475
X5.9542Y-3.575
T3
X5.085Y-3.905
X5.685Y-3.905
T0
M30
