%!PS-Adobe-3.0
%%Creator: PCBNEW
%%CreationDate: Tue Mar  8 19:04:24 2022
%%Title: ()
%%Pages: 1
%%PageOrder: Ascend
%%BoundingBox: 0 0 596 842
%%DocumentMedia: A4 595 842 0 () ()
%%Orientation: Landscape
%%EndComments
%%BeginProlog
/line { newpath moveto lineto stroke } bind def
/cir0 { newpath 0 360 arc stroke } bind def
/cir1 { newpath 0 360 arc gsave fill grestore stroke } bind def
/cir2 { newpath 0 360 arc gsave fill grestore stroke } bind def
/arc0 { newpath arc stroke } bind def
/arc1 { newpath 4 index 4 index moveto arc closepath gsave fill
    grestore stroke } bind def
/arc2 { newpath 4 index 4 index moveto arc closepath gsave fill
    grestore stroke } bind def
/poly0 { stroke } bind def
/poly1 { closepath gsave fill grestore stroke } bind def
/poly2 { closepath gsave fill grestore stroke } bind def
/rect0 { rectstroke } bind def
/rect1 { rectfill } bind def
/rect2 { rectfill } bind def
/linemode0 { 0 setlinecap 0 setlinejoin 0 setlinewidth } bind def
/linemode1 { 1 setlinecap 1 setlinejoin } bind def
/dashedline { [200] 100 setdash } bind def
/solidline { [] 0 setdash } bind def
/phantomshow { moveto
    /KicadFont findfont 0.000001 scalefont setfont
    show } bind def
/textshow { gsave
    findfont exch scalefont setfont concat 1 scale 0 0 moveto show
    } bind def
/reencodefont {
  findfont dup length dict begin
  { 1 index /FID ne
    { def }
    { pop pop } ifelse
  } forall
  /Encoding ISOLatin1Encoding def
  currentdict
  end } bind def
/KicadFont /Helvetica reencodefont definefont pop
/KicadFont-Bold /Helvetica-Bold reencodefont definefont pop
/KicadFont-Oblique /Helvetica-Oblique reencodefont definefont pop
/KicadFont-BoldOblique /Helvetica-BoldOblique reencodefont definefont pop
%%EndProlog
%%Page: 1 1
%%BeginPageSetup
gsave
0.0072 0.0072 scale
linemode1
82680 0 translate 90 rotate
220.766 setlinewidth
%%EndPageSetup
0 0 0 setrgbcolor
110.383 setlinewidth
newpath
81245.3 80656.3 moveto
35684.7 80656.3 lineto
stroke
newpath
35684.7 80656.3 moveto
35684.7 35095.7 lineto
stroke
newpath
35684.7 35095.7 moveto
81245.3 35095.7 lineto
stroke
newpath
81245.3 35095.7 moveto
81245.3 80656.3 lineto
stroke
220.766 setlinewidth
88.3065 setlinewidth
newpath
43654.4 64091.1 moveto
44537.4 63208.1 lineto
stroke
newpath
44537.4 64091.1 moveto
43654.4 63208.1 lineto
stroke
newpath
43654.4 58572 moveto
44537.4 57688.9 lineto
stroke
newpath
44537.4 58572 moveto
43654.4 57688.9 lineto
stroke
newpath
73514.1 64932.2 moveto
74397.1 64049.2 lineto
stroke
newpath
74397.1 64932.2 moveto
73514.1 64049.2 lineto
stroke
newpath
73514.1 59413.1 moveto
74397.1 58530 lineto
stroke
newpath
74397.1 59413.1 moveto
73514.1 58530 lineto
stroke
131.356 setlinewidth
50846.9 51077 656.779 cir0
50846.9 48273.2 656.779 cir0
74774.6 52198.4 656.779 cir0
74774.6 49394.7 656.779 cir0
176.613 setlinewidth
newpath
50404.3 41025.5 moveto
50404.3 39259.3 lineto
stroke
newpath
49521.2 40142.4 moveto
51287.3 40142.4 lineto
stroke
newpath
67226.7 41025.5 moveto
67226.7 39259.3 lineto
stroke
newpath
66343.6 40142.4 moveto
68109.7 40142.4 lineto
stroke
220.766 setlinewidth
78.7407 setlinewidth
0 0 0 setrgbcolor
0 0 0 setrgbcolor
newpath
36643.8 33818.2 moveto
36643.8 34605.6 lineto
36831.2 34605.6 lineto
36943.7 34568.1 lineto
37018.7 34493.1 lineto
37056.2 34418.1 lineto
37093.7 34268.1 lineto
37093.7 34155.6 lineto
37056.2 34005.6 lineto
37018.7 33930.6 lineto
36943.7 33855.7 lineto
36831.2 33818.2 lineto
36643.8 33818.2 lineto
stroke
newpath
37431.2 33818.2 moveto
37431.2 34343.1 lineto
stroke
newpath
37431.2 34193.1 moveto
37468.6 34268.1 lineto
37506.1 34305.6 lineto
37581.1 34343.1 lineto
37656.1 34343.1 lineto
stroke
newpath
37918.6 33818.2 moveto
37918.6 34343.1 lineto
stroke
newpath
37918.6 34605.6 moveto
37881.1 34568.1 lineto
37918.6 34530.6 lineto
37956.1 34568.1 lineto
37918.6 34605.6 lineto
37918.6 34530.6 lineto
stroke
newpath
38406 33818.2 moveto
38331 33855.7 lineto
38293.5 33930.6 lineto
38293.5 34605.6 lineto
stroke
newpath
38818.5 33818.2 moveto
38743.5 33855.7 lineto
38706 33930.6 lineto
38706 34605.6 lineto
stroke
newpath
39718.4 33818.2 moveto
39718.4 34605.6 lineto
39980.8 34043.1 lineto
40243.3 34605.6 lineto
40243.3 33818.2 lineto
stroke
newpath
40955.7 33818.2 moveto
40955.7 34230.6 lineto
40918.2 34305.6 lineto
40843.2 34343.1 lineto
40693.2 34343.1 lineto
40618.3 34305.6 lineto
stroke
newpath
40955.7 33855.7 moveto
40880.7 33818.2 lineto
40693.2 33818.2 lineto
40618.3 33855.7 lineto
40580.8 33930.6 lineto
40580.8 34005.6 lineto
40618.3 34080.6 lineto
40693.2 34118.1 lineto
40880.7 34118.1 lineto
40955.7 34155.6 lineto
stroke
newpath
41330.7 34343.1 moveto
41330.7 33555.7 lineto
stroke
newpath
41330.7 34305.6 moveto
41405.7 34343.1 lineto
41555.6 34343.1 lineto
41630.6 34305.6 lineto
41668.1 34268.1 lineto
41705.6 34193.1 lineto
41705.6 33968.1 lineto
41668.1 33893.1 lineto
41630.6 33855.7 lineto
41555.6 33818.2 lineto
41405.7 33818.2 lineto
41330.7 33855.7 lineto
stroke
newpath
42043.1 33893.1 moveto
42080.6 33855.7 lineto
42043.1 33818.2 lineto
42005.6 33855.7 lineto
42043.1 33893.1 lineto
42043.1 33818.2 lineto
stroke
newpath
42043.1 34305.6 moveto
42080.6 34268.1 lineto
42043.1 34230.6 lineto
42005.6 34268.1 lineto
42043.1 34305.6 lineto
42043.1 34230.6 lineto
stroke
78.7396 setlinewidth
newpath
34842.1 32914.5 moveto
35629.5 32127.1 lineto
stroke
newpath
35629.5 32914.5 moveto
34842.1 32127.1 lineto
stroke
220.766 setlinewidth
78.7407 setlinewidth
0 0 0 setrgbcolor
0 0 0 setrgbcolor
newpath
36793.7 32952 moveto
36868.7 32952 lineto
36943.7 32914.5 lineto
36981.2 32877 lineto
37018.7 32802 lineto
37056.2 32652.1 lineto
37056.2 32464.6 lineto
37018.7 32314.6 lineto
36981.2 32239.6 lineto
36943.7 32202.1 lineto
36868.7 32164.6 lineto
36793.7 32164.6 lineto
36718.7 32202.1 lineto
36681.2 32239.6 lineto
36643.8 32314.6 lineto
36606.3 32464.6 lineto
36606.3 32652.1 lineto
36643.8 32802 lineto
36681.2 32877 lineto
36718.7 32914.5 lineto
36793.7 32952 lineto
stroke
newpath
37393.7 32239.6 moveto
37431.2 32202.1 lineto
37393.7 32164.6 lineto
37356.2 32202.1 lineto
37393.7 32239.6 lineto
37393.7 32164.6 lineto
stroke
newpath
37881.1 32614.6 moveto
37806.1 32652.1 lineto
37768.6 32689.5 lineto
37731.1 32764.5 lineto
37731.1 32802 lineto
37768.6 32877 lineto
37806.1 32914.5 lineto
37881.1 32952 lineto
38031.1 32952 lineto
38106.1 32914.5 lineto
38143.6 32877 lineto
38181.1 32802 lineto
38181.1 32764.5 lineto
38143.6 32689.5 lineto
38106.1 32652.1 lineto
38031.1 32614.6 lineto
37881.1 32614.6 lineto
37806.1 32577.1 lineto
37768.6 32539.6 lineto
37731.1 32464.6 lineto
37731.1 32314.6 lineto
37768.6 32239.6 lineto
37806.1 32202.1 lineto
37881.1 32164.6 lineto
38031.1 32164.6 lineto
38106.1 32202.1 lineto
38143.6 32239.6 lineto
38181.1 32314.6 lineto
38181.1 32464.6 lineto
38143.6 32539.6 lineto
38106.1 32577.1 lineto
38031.1 32614.6 lineto
stroke
newpath
38668.5 32952 moveto
38743.5 32952 lineto
38818.5 32914.5 lineto
38856 32877 lineto
38893.5 32802 lineto
38931 32652.1 lineto
38931 32464.6 lineto
38893.5 32314.6 lineto
38856 32239.6 lineto
38818.5 32202.1 lineto
38743.5 32164.6 lineto
38668.5 32164.6 lineto
38593.5 32202.1 lineto
38556 32239.6 lineto
38518.5 32314.6 lineto
38481 32464.6 lineto
38481 32652.1 lineto
38518.5 32802 lineto
38556 32877 lineto
38593.5 32914.5 lineto
38668.5 32952 lineto
stroke
newpath
39418.4 32952 moveto
39493.4 32952 lineto
39568.4 32914.5 lineto
39605.9 32877 lineto
39643.4 32802 lineto
39680.9 32652.1 lineto
39680.9 32464.6 lineto
39643.4 32314.6 lineto
39605.9 32239.6 lineto
39568.4 32202.1 lineto
39493.4 32164.6 lineto
39418.4 32164.6 lineto
39343.4 32202.1 lineto
39305.9 32239.6 lineto
39268.4 32314.6 lineto
39230.9 32464.6 lineto
39230.9 32652.1 lineto
39268.4 32802 lineto
39305.9 32877 lineto
39343.4 32914.5 lineto
39418.4 32952 lineto
stroke
newpath
40018.3 32164.6 moveto
40018.3 32689.5 lineto
stroke
newpath
40018.3 32614.6 moveto
40055.8 32652.1 lineto
40130.8 32689.5 lineto
40243.3 32689.5 lineto
40318.3 32652.1 lineto
40355.8 32577.1 lineto
40355.8 32164.6 lineto
stroke
newpath
40355.8 32577.1 moveto
40393.3 32652.1 lineto
40468.3 32689.5 lineto
40580.8 32689.5 lineto
40655.8 32652.1 lineto
40693.2 32577.1 lineto
40693.2 32164.6 lineto
stroke
newpath
41068.2 32164.6 moveto
41068.2 32689.5 lineto
stroke
newpath
41068.2 32614.6 moveto
41105.7 32652.1 lineto
41180.7 32689.5 lineto
41293.2 32689.5 lineto
41368.2 32652.1 lineto
41405.7 32577.1 lineto
41405.7 32164.6 lineto
stroke
newpath
41405.7 32577.1 moveto
41443.2 32652.1 lineto
41518.1 32689.5 lineto
41630.6 32689.5 lineto
41705.6 32652.1 lineto
41743.1 32577.1 lineto
41743.1 32164.6 lineto
stroke
newpath
43280.4 32989.5 moveto
42605.5 31977.1 lineto
stroke
newpath
44292.8 32952 moveto
44367.8 32952 lineto
44442.8 32914.5 lineto
44480.3 32877 lineto
44517.8 32802 lineto
44555.3 32652.1 lineto
44555.3 32464.6 lineto
44517.8 32314.6 lineto
44480.3 32239.6 lineto
44442.8 32202.1 lineto
44367.8 32164.6 lineto
44292.8 32164.6 lineto
44217.8 32202.1 lineto
44180.3 32239.6 lineto
44142.8 32314.6 lineto
44105.3 32464.6 lineto
44105.3 32652.1 lineto
44142.8 32802 lineto
44180.3 32877 lineto
44217.8 32914.5 lineto
44292.8 32952 lineto
stroke
newpath
44892.7 32239.6 moveto
44930.2 32202.1 lineto
44892.7 32164.6 lineto
44855.2 32202.1 lineto
44892.7 32239.6 lineto
44892.7 32164.6 lineto
stroke
newpath
45417.7 32952 moveto
45492.7 32952 lineto
45567.6 32914.5 lineto
45605.1 32877 lineto
45642.6 32802 lineto
45680.1 32652.1 lineto
45680.1 32464.6 lineto
45642.6 32314.6 lineto
45605.1 32239.6 lineto
45567.6 32202.1 lineto
45492.7 32164.6 lineto
45417.7 32164.6 lineto
45342.7 32202.1 lineto
45305.2 32239.6 lineto
45267.7 32314.6 lineto
45230.2 32464.6 lineto
45230.2 32652.1 lineto
45267.7 32802 lineto
45305.2 32877 lineto
45342.7 32914.5 lineto
45417.7 32952 lineto
stroke
newpath
45942.6 32952 moveto
46430 32952 lineto
46167.6 32652.1 lineto
46280.1 32652.1 lineto
46355 32614.6 lineto
46392.5 32577.1 lineto
46430 32502.1 lineto
46430 32314.6 lineto
46392.5 32239.6 lineto
46355 32202.1 lineto
46280.1 32164.6 lineto
46055.1 32164.6 lineto
45980.1 32202.1 lineto
45942.6 32239.6 lineto
stroke
newpath
47179.9 32164.6 moveto
46730 32164.6 lineto
stroke
newpath
46955 32164.6 moveto
46955 32952 lineto
46880 32839.5 lineto
46805 32764.5 lineto
46730 32727 lineto
stroke
newpath
47892.4 32952 moveto
47517.4 32952 lineto
47479.9 32577.1 lineto
47517.4 32614.6 lineto
47592.4 32652.1 lineto
47779.9 32652.1 lineto
47854.9 32614.6 lineto
47892.4 32577.1 lineto
47929.8 32502.1 lineto
47929.8 32314.6 lineto
47892.4 32239.6 lineto
47854.9 32202.1 lineto
47779.9 32164.6 lineto
47592.4 32164.6 lineto
47517.4 32202.1 lineto
47479.9 32239.6 lineto
stroke
newpath
48229.8 32952 moveto
48229.8 32802 lineto
stroke
newpath
48529.8 32952 moveto
48529.8 32802 lineto
stroke
newpath
49692.1 31864.6 moveto
49654.6 31902.1 lineto
49579.6 32014.6 lineto
49542.1 32089.6 lineto
49504.7 32202.1 lineto
49467.2 32389.6 lineto
49467.2 32539.6 lineto
49504.7 32727 lineto
49542.1 32839.5 lineto
49579.6 32914.5 lineto
49654.6 33027 lineto
49692.1 33064.5 lineto
stroke
newpath
50329.6 32689.5 moveto
50329.6 32164.6 lineto
stroke
newpath
50142.1 32989.5 moveto
49954.6 32427.1 lineto
50442 32427.1 lineto
stroke
newpath
51341.9 32164.6 moveto
51341.9 32952 lineto
stroke
newpath
51679.4 32164.6 moveto
51679.4 32577.1 lineto
51641.9 32652.1 lineto
51566.9 32689.5 lineto
51454.4 32689.5 lineto
51379.4 32652.1 lineto
51341.9 32614.6 lineto
stroke
newpath
52166.8 32164.6 moveto
52091.8 32202.1 lineto
52054.3 32239.6 lineto
52016.8 32314.6 lineto
52016.8 32539.6 lineto
52054.3 32614.6 lineto
52091.8 32652.1 lineto
52166.8 32689.5 lineto
52279.3 32689.5 lineto
52354.3 32652.1 lineto
52391.8 32614.6 lineto
52429.3 32539.6 lineto
52429.3 32314.6 lineto
52391.8 32239.6 lineto
52354.3 32202.1 lineto
52279.3 32164.6 lineto
52166.8 32164.6 lineto
stroke
newpath
52879.2 32164.6 moveto
52804.2 32202.1 lineto
52766.7 32277.1 lineto
52766.7 32952 lineto
stroke
newpath
53479.2 32202.1 moveto
53404.2 32164.6 lineto
53254.2 32164.6 lineto
53179.2 32202.1 lineto
53141.7 32277.1 lineto
53141.7 32577.1 lineto
53179.2 32652.1 lineto
53254.2 32689.5 lineto
53404.2 32689.5 lineto
53479.2 32652.1 lineto
53516.7 32577.1 lineto
53516.7 32502.1 lineto
53141.7 32427.1 lineto
stroke
newpath
53816.6 32202.1 moveto
53891.6 32164.6 lineto
54041.6 32164.6 lineto
54116.6 32202.1 lineto
54154.1 32277.1 lineto
54154.1 32314.6 lineto
54116.6 32389.6 lineto
54041.6 32427.1 lineto
53929.1 32427.1 lineto
53854.1 32464.6 lineto
53816.6 32539.6 lineto
53816.6 32577.1 lineto
53854.1 32652.1 lineto
53929.1 32689.5 lineto
54041.6 32689.5 lineto
54116.6 32652.1 lineto
stroke
newpath
54416.5 31864.6 moveto
54454 31902.1 lineto
54529 32014.6 lineto
54566.5 32089.6 lineto
54604 32202.1 lineto
54641.5 32389.6 lineto
54641.5 32539.6 lineto
54604 32727 lineto
54566.5 32839.5 lineto
54529 32914.5 lineto
54454 33027 lineto
54416.5 33064.5 lineto
stroke
78.7396 setlinewidth
35235.8 31261 393.701 cir0
220.766 setlinewidth
78.7407 setlinewidth
0 0 0 setrgbcolor
0 0 0 setrgbcolor
newpath
37056.2 30904.8 moveto
36606.3 30904.8 lineto
stroke
newpath
36831.2 30904.8 moveto
36831.2 31692.2 lineto
36756.2 31579.7 lineto
36681.2 31504.7 lineto
36606.3 31467.2 lineto
stroke
newpath
37393.7 30979.8 moveto
37431.2 30942.3 lineto
37393.7 30904.8 lineto
37356.2 30942.3 lineto
37393.7 30979.8 lineto
37393.7 30904.8 lineto
stroke
newpath
38181.1 30904.8 moveto
37731.1 30904.8 lineto
stroke
newpath
37956.1 30904.8 moveto
37956.1 31692.2 lineto
37881.1 31579.7 lineto
37806.1 31504.7 lineto
37731.1 31467.2 lineto
stroke
newpath
38556 30904.8 moveto
38706 30904.8 lineto
38781 30942.3 lineto
38818.5 30979.8 lineto
38893.5 31092.2 lineto
38931 31242.2 lineto
38931 31542.2 lineto
38893.5 31617.2 lineto
38856 31654.7 lineto
38781 31692.2 lineto
38631 31692.2 lineto
38556 31654.7 lineto
38518.5 31617.2 lineto
38481 31542.2 lineto
38481 31354.7 lineto
38518.5 31279.7 lineto
38556 31242.2 lineto
38631 31204.7 lineto
38781 31204.7 lineto
38856 31242.2 lineto
38893.5 31279.7 lineto
38931 31354.7 lineto
stroke
newpath
39418.4 31692.2 moveto
39493.4 31692.2 lineto
39568.4 31654.7 lineto
39605.9 31617.2 lineto
39643.4 31542.2 lineto
39680.9 31392.2 lineto
39680.9 31204.7 lineto
39643.4 31054.7 lineto
39605.9 30979.8 lineto
39568.4 30942.3 lineto
39493.4 30904.8 lineto
39418.4 30904.8 lineto
39343.4 30942.3 lineto
39305.9 30979.8 lineto
39268.4 31054.7 lineto
39230.9 31204.7 lineto
39230.9 31392.2 lineto
39268.4 31542.2 lineto
39305.9 31617.2 lineto
39343.4 31654.7 lineto
39418.4 31692.2 lineto
stroke
newpath
40018.3 30904.8 moveto
40018.3 31429.7 lineto
stroke
newpath
40018.3 31354.7 moveto
40055.8 31392.2 lineto
40130.8 31429.7 lineto
40243.3 31429.7 lineto
40318.3 31392.2 lineto
40355.8 31317.2 lineto
40355.8 30904.8 lineto
stroke
newpath
40355.8 31317.2 moveto
40393.3 31392.2 lineto
40468.3 31429.7 lineto
40580.8 31429.7 lineto
40655.8 31392.2 lineto
40693.2 31317.2 lineto
40693.2 30904.8 lineto
stroke
newpath
41068.2 30904.8 moveto
41068.2 31429.7 lineto
stroke
newpath
41068.2 31354.7 moveto
41105.7 31392.2 lineto
41180.7 31429.7 lineto
41293.2 31429.7 lineto
41368.2 31392.2 lineto
41405.7 31317.2 lineto
41405.7 30904.8 lineto
stroke
newpath
41405.7 31317.2 moveto
41443.2 31392.2 lineto
41518.1 31429.7 lineto
41630.6 31429.7 lineto
41705.6 31392.2 lineto
41743.1 31317.2 lineto
41743.1 30904.8 lineto
stroke
newpath
43280.4 31729.7 moveto
42605.5 30717.3 lineto
stroke
newpath
44292.8 31692.2 moveto
44367.8 31692.2 lineto
44442.8 31654.7 lineto
44480.3 31617.2 lineto
44517.8 31542.2 lineto
44555.3 31392.2 lineto
44555.3 31204.7 lineto
44517.8 31054.7 lineto
44480.3 30979.8 lineto
44442.8 30942.3 lineto
44367.8 30904.8 lineto
44292.8 30904.8 lineto
44217.8 30942.3 lineto
44180.3 30979.8 lineto
44142.8 31054.7 lineto
44105.3 31204.7 lineto
44105.3 31392.2 lineto
44142.8 31542.2 lineto
44180.3 31617.2 lineto
44217.8 31654.7 lineto
44292.8 31692.2 lineto
stroke
newpath
44892.7 30979.8 moveto
44930.2 30942.3 lineto
44892.7 30904.8 lineto
44855.2 30942.3 lineto
44892.7 30979.8 lineto
44892.7 30904.8 lineto
stroke
newpath
45417.7 31692.2 moveto
45492.7 31692.2 lineto
45567.6 31654.7 lineto
45605.1 31617.2 lineto
45642.6 31542.2 lineto
45680.1 31392.2 lineto
45680.1 31204.7 lineto
45642.6 31054.7 lineto
45605.1 30979.8 lineto
45567.6 30942.3 lineto
45492.7 30904.8 lineto
45417.7 30904.8 lineto
45342.7 30942.3 lineto
45305.2 30979.8 lineto
45267.7 31054.7 lineto
45230.2 31204.7 lineto
45230.2 31392.2 lineto
45267.7 31542.2 lineto
45305.2 31617.2 lineto
45342.7 31654.7 lineto
45417.7 31692.2 lineto
stroke
newpath
46355 31429.7 moveto
46355 30904.8 lineto
stroke
newpath
46167.6 31729.7 moveto
45980.1 31167.2 lineto
46467.5 31167.2 lineto
stroke
newpath
47105 31692.2 moveto
46955 31692.2 lineto
46880 31654.7 lineto
46842.5 31617.2 lineto
46767.5 31504.7 lineto
46730 31354.7 lineto
46730 31054.7 lineto
46767.5 30979.8 lineto
46805 30942.3 lineto
46880 30904.8 lineto
47030 30904.8 lineto
47105 30942.3 lineto
47142.4 30979.8 lineto
47179.9 31054.7 lineto
47179.9 31242.2 lineto
47142.4 31317.2 lineto
47105 31354.7 lineto
47030 31392.2 lineto
46880 31392.2 lineto
46805 31354.7 lineto
46767.5 31317.2 lineto
46730 31242.2 lineto
stroke
newpath
47554.9 30904.8 moveto
47704.9 30904.8 lineto
47779.9 30942.3 lineto
47817.4 30979.8 lineto
47892.4 31092.2 lineto
47929.8 31242.2 lineto
47929.8 31542.2 lineto
47892.4 31617.2 lineto
47854.9 31654.7 lineto
47779.9 31692.2 lineto
47629.9 31692.2 lineto
47554.9 31654.7 lineto
47517.4 31617.2 lineto
47479.9 31542.2 lineto
47479.9 31354.7 lineto
47517.4 31279.7 lineto
47554.9 31242.2 lineto
47629.9 31204.7 lineto
47779.9 31204.7 lineto
47854.9 31242.2 lineto
47892.4 31279.7 lineto
47929.8 31354.7 lineto
stroke
newpath
48229.8 31692.2 moveto
48229.8 31542.2 lineto
stroke
newpath
48529.8 31692.2 moveto
48529.8 31542.2 lineto
stroke
newpath
49692.1 30604.8 moveto
49654.6 30642.3 lineto
49579.6 30754.8 lineto
49542.1 30829.8 lineto
49504.7 30942.3 lineto
49467.2 31129.7 lineto
49467.2 31279.7 lineto
49504.7 31467.2 lineto
49542.1 31579.7 lineto
49579.6 31654.7 lineto
49654.6 31767.2 lineto
49692.1 31804.7 lineto
stroke
newpath
50329.6 31429.7 moveto
50329.6 30904.8 lineto
stroke
newpath
50142.1 31729.7 moveto
49954.6 31167.2 lineto
50442 31167.2 lineto
stroke
newpath
51341.9 30904.8 moveto
51341.9 31692.2 lineto
stroke
newpath
51679.4 30904.8 moveto
51679.4 31317.2 lineto
51641.9 31392.2 lineto
51566.9 31429.7 lineto
51454.4 31429.7 lineto
51379.4 31392.2 lineto
51341.9 31354.7 lineto
stroke
newpath
52166.8 30904.8 moveto
52091.8 30942.3 lineto
52054.3 30979.8 lineto
52016.8 31054.7 lineto
52016.8 31279.7 lineto
52054.3 31354.7 lineto
52091.8 31392.2 lineto
52166.8 31429.7 lineto
52279.3 31429.7 lineto
52354.3 31392.2 lineto
52391.8 31354.7 lineto
52429.3 31279.7 lineto
52429.3 31054.7 lineto
52391.8 30979.8 lineto
52354.3 30942.3 lineto
52279.3 30904.8 lineto
52166.8 30904.8 lineto
stroke
newpath
52879.2 30904.8 moveto
52804.2 30942.3 lineto
52766.7 31017.3 lineto
52766.7 31692.2 lineto
stroke
newpath
53479.2 30942.3 moveto
53404.2 30904.8 lineto
53254.2 30904.8 lineto
53179.2 30942.3 lineto
53141.7 31017.3 lineto
53141.7 31317.2 lineto
53179.2 31392.2 lineto
53254.2 31429.7 lineto
53404.2 31429.7 lineto
53479.2 31392.2 lineto
53516.7 31317.2 lineto
53516.7 31242.2 lineto
53141.7 31167.2 lineto
stroke
newpath
53816.6 30942.3 moveto
53891.6 30904.8 lineto
54041.6 30904.8 lineto
54116.6 30942.3 lineto
54154.1 31017.3 lineto
54154.1 31054.7 lineto
54116.6 31129.7 lineto
54041.6 31167.2 lineto
53929.1 31167.2 lineto
53854.1 31204.7 lineto
53816.6 31279.7 lineto
53816.6 31317.2 lineto
53854.1 31392.2 lineto
53929.1 31429.7 lineto
54041.6 31429.7 lineto
54116.6 31392.2 lineto
stroke
newpath
54416.5 30604.8 moveto
54454 30642.3 lineto
54529 30754.8 lineto
54566.5 30829.8 lineto
54604 30942.3 lineto
54641.5 31129.7 lineto
54641.5 31279.7 lineto
54604 31467.2 lineto
54566.5 31579.7 lineto
54529 31654.7 lineto
54454 31767.2 lineto
54416.5 31804.7 lineto
stroke
78.7396 setlinewidth
newpath
35235.8 30394.8 moveto
35235.8 29607.4 lineto
stroke
newpath
34842.1 30001.1 moveto
35629.5 30001.1 lineto
stroke
220.766 setlinewidth
78.7407 setlinewidth
0 0 0 setrgbcolor
0 0 0 setrgbcolor
newpath
37056.2 29644.9 moveto
36606.3 29644.9 lineto
stroke
newpath
36831.2 29644.9 moveto
36831.2 30432.3 lineto
36756.2 30319.8 lineto
36681.2 30244.9 lineto
36606.3 30207.4 lineto
stroke
newpath
37393.7 29719.9 moveto
37431.2 29682.4 lineto
37393.7 29644.9 lineto
37356.2 29682.4 lineto
37393.7 29719.9 lineto
37393.7 29644.9 lineto
stroke
newpath
38106.1 30432.3 moveto
37956.1 30432.3 lineto
37881.1 30394.8 lineto
37843.6 30357.3 lineto
37768.6 30244.9 lineto
37731.1 30094.9 lineto
37731.1 29794.9 lineto
37768.6 29719.9 lineto
37806.1 29682.4 lineto
37881.1 29644.9 lineto
38031.1 29644.9 lineto
38106.1 29682.4 lineto
38143.6 29719.9 lineto
38181.1 29794.9 lineto
38181.1 29982.4 lineto
38143.6 30057.4 lineto
38106.1 30094.9 lineto
38031.1 30132.4 lineto
37881.1 30132.4 lineto
37806.1 30094.9 lineto
37768.6 30057.4 lineto
37731.1 29982.4 lineto
stroke
newpath
38668.5 30432.3 moveto
38743.5 30432.3 lineto
38818.5 30394.8 lineto
38856 30357.3 lineto
38893.5 30282.3 lineto
38931 30132.4 lineto
38931 29944.9 lineto
38893.5 29794.9 lineto
38856 29719.9 lineto
38818.5 29682.4 lineto
38743.5 29644.9 lineto
38668.5 29644.9 lineto
38593.5 29682.4 lineto
38556 29719.9 lineto
38518.5 29794.9 lineto
38481 29944.9 lineto
38481 30132.4 lineto
38518.5 30282.3 lineto
38556 30357.3 lineto
38593.5 30394.8 lineto
38668.5 30432.3 lineto
stroke
newpath
39418.4 30432.3 moveto
39493.4 30432.3 lineto
39568.4 30394.8 lineto
39605.9 30357.3 lineto
39643.4 30282.3 lineto
39680.9 30132.4 lineto
39680.9 29944.9 lineto
39643.4 29794.9 lineto
39605.9 29719.9 lineto
39568.4 29682.4 lineto
39493.4 29644.9 lineto
39418.4 29644.9 lineto
39343.4 29682.4 lineto
39305.9 29719.9 lineto
39268.4 29794.9 lineto
39230.9 29944.9 lineto
39230.9 30132.4 lineto
39268.4 30282.3 lineto
39305.9 30357.3 lineto
39343.4 30394.8 lineto
39418.4 30432.3 lineto
stroke
newpath
40018.3 29644.9 moveto
40018.3 30169.9 lineto
stroke
newpath
40018.3 30094.9 moveto
40055.8 30132.4 lineto
40130.8 30169.9 lineto
40243.3 30169.9 lineto
40318.3 30132.4 lineto
40355.8 30057.4 lineto
40355.8 29644.9 lineto
stroke
newpath
40355.8 30057.4 moveto
40393.3 30132.4 lineto
40468.3 30169.9 lineto
40580.8 30169.9 lineto
40655.8 30132.4 lineto
40693.2 30057.4 lineto
40693.2 29644.9 lineto
stroke
newpath
41068.2 29644.9 moveto
41068.2 30169.9 lineto
stroke
newpath
41068.2 30094.9 moveto
41105.7 30132.4 lineto
41180.7 30169.9 lineto
41293.2 30169.9 lineto
41368.2 30132.4 lineto
41405.7 30057.4 lineto
41405.7 29644.9 lineto
stroke
newpath
41405.7 30057.4 moveto
41443.2 30132.4 lineto
41518.1 30169.9 lineto
41630.6 30169.9 lineto
41705.6 30132.4 lineto
41743.1 30057.4 lineto
41743.1 29644.9 lineto
stroke
newpath
43280.4 30469.8 moveto
42605.5 29457.4 lineto
stroke
newpath
44292.8 30432.3 moveto
44367.8 30432.3 lineto
44442.8 30394.8 lineto
44480.3 30357.3 lineto
44517.8 30282.3 lineto
44555.3 30132.4 lineto
44555.3 29944.9 lineto
44517.8 29794.9 lineto
44480.3 29719.9 lineto
44442.8 29682.4 lineto
44367.8 29644.9 lineto
44292.8 29644.9 lineto
44217.8 29682.4 lineto
44180.3 29719.9 lineto
44142.8 29794.9 lineto
44105.3 29944.9 lineto
44105.3 30132.4 lineto
44142.8 30282.3 lineto
44180.3 30357.3 lineto
44217.8 30394.8 lineto
44292.8 30432.3 lineto
stroke
newpath
44892.7 29719.9 moveto
44930.2 29682.4 lineto
44892.7 29644.9 lineto
44855.2 29682.4 lineto
44892.7 29719.9 lineto
44892.7 29644.9 lineto
stroke
newpath
45417.7 30432.3 moveto
45492.7 30432.3 lineto
45567.6 30394.8 lineto
45605.1 30357.3 lineto
45642.6 30282.3 lineto
45680.1 30132.4 lineto
45680.1 29944.9 lineto
45642.6 29794.9 lineto
45605.1 29719.9 lineto
45567.6 29682.4 lineto
45492.7 29644.9 lineto
45417.7 29644.9 lineto
45342.7 29682.4 lineto
45305.2 29719.9 lineto
45267.7 29794.9 lineto
45230.2 29944.9 lineto
45230.2 30132.4 lineto
45267.7 30282.3 lineto
45305.2 30357.3 lineto
45342.7 30394.8 lineto
45417.7 30432.3 lineto
stroke
newpath
46355 30432.3 moveto
46205.1 30432.3 lineto
46130.1 30394.8 lineto
46092.6 30357.3 lineto
46017.6 30244.9 lineto
45980.1 30094.9 lineto
45980.1 29794.9 lineto
46017.6 29719.9 lineto
46055.1 29682.4 lineto
46130.1 29644.9 lineto
46280.1 29644.9 lineto
46355 29682.4 lineto
46392.5 29719.9 lineto
46430 29794.9 lineto
46430 29982.4 lineto
46392.5 30057.4 lineto
46355 30094.9 lineto
46280.1 30132.4 lineto
46130.1 30132.4 lineto
46055.1 30094.9 lineto
46017.6 30057.4 lineto
45980.1 29982.4 lineto
stroke
newpath
46692.5 30432.3 moveto
47179.9 30432.3 lineto
46917.5 30132.4 lineto
47030 30132.4 lineto
47105 30094.9 lineto
47142.4 30057.4 lineto
47179.9 29982.4 lineto
47179.9 29794.9 lineto
47142.4 29719.9 lineto
47105 29682.4 lineto
47030 29644.9 lineto
46805 29644.9 lineto
46730 29682.4 lineto
46692.5 29719.9 lineto
stroke
newpath
47667.4 30432.3 moveto
47742.4 30432.3 lineto
47817.4 30394.8 lineto
47854.9 30357.3 lineto
47892.4 30282.3 lineto
47929.8 30132.4 lineto
47929.8 29944.9 lineto
47892.4 29794.9 lineto
47854.9 29719.9 lineto
47817.4 29682.4 lineto
47742.4 29644.9 lineto
47667.4 29644.9 lineto
47592.4 29682.4 lineto
47554.9 29719.9 lineto
47517.4 29794.9 lineto
47479.9 29944.9 lineto
47479.9 30132.4 lineto
47517.4 30282.3 lineto
47554.9 30357.3 lineto
47592.4 30394.8 lineto
47667.4 30432.3 lineto
stroke
newpath
48229.8 30432.3 moveto
48229.8 30282.3 lineto
stroke
newpath
48529.8 30432.3 moveto
48529.8 30282.3 lineto
stroke
newpath
49692.1 29345 moveto
49654.6 29382.5 lineto
49579.6 29494.9 lineto
49542.1 29569.9 lineto
49504.7 29682.4 lineto
49467.2 29869.9 lineto
49467.2 30019.9 lineto
49504.7 30207.4 lineto
49542.1 30319.8 lineto
49579.6 30394.8 lineto
49654.6 30507.3 lineto
49692.1 30544.8 lineto
stroke
newpath
49954.6 30357.3 moveto
49992.1 30394.8 lineto
50067.1 30432.3 lineto
50254.6 30432.3 lineto
50329.6 30394.8 lineto
50367 30357.3 lineto
50404.5 30282.3 lineto
50404.5 30207.4 lineto
50367 30094.9 lineto
49917.1 29644.9 lineto
50404.5 29644.9 lineto
stroke
newpath
51341.9 29644.9 moveto
51341.9 30432.3 lineto
stroke
newpath
51679.4 29644.9 moveto
51679.4 30057.4 lineto
51641.9 30132.4 lineto
51566.9 30169.9 lineto
51454.4 30169.9 lineto
51379.4 30132.4 lineto
51341.9 30094.9 lineto
stroke
newpath
52166.8 29644.9 moveto
52091.8 29682.4 lineto
52054.3 29719.9 lineto
52016.8 29794.9 lineto
52016.8 30019.9 lineto
52054.3 30094.9 lineto
52091.8 30132.4 lineto
52166.8 30169.9 lineto
52279.3 30169.9 lineto
52354.3 30132.4 lineto
52391.8 30094.9 lineto
52429.3 30019.9 lineto
52429.3 29794.9 lineto
52391.8 29719.9 lineto
52354.3 29682.4 lineto
52279.3 29644.9 lineto
52166.8 29644.9 lineto
stroke
newpath
52879.2 29644.9 moveto
52804.2 29682.4 lineto
52766.7 29757.4 lineto
52766.7 30432.3 lineto
stroke
newpath
53479.2 29682.4 moveto
53404.2 29644.9 lineto
53254.2 29644.9 lineto
53179.2 29682.4 lineto
53141.7 29757.4 lineto
53141.7 30057.4 lineto
53179.2 30132.4 lineto
53254.2 30169.9 lineto
53404.2 30169.9 lineto
53479.2 30132.4 lineto
53516.7 30057.4 lineto
53516.7 29982.4 lineto
53141.7 29907.4 lineto
stroke
newpath
53816.6 29682.4 moveto
53891.6 29644.9 lineto
54041.6 29644.9 lineto
54116.6 29682.4 lineto
54154.1 29757.4 lineto
54154.1 29794.9 lineto
54116.6 29869.9 lineto
54041.6 29907.4 lineto
53929.1 29907.4 lineto
53854.1 29944.9 lineto
53816.6 30019.9 lineto
53816.6 30057.4 lineto
53854.1 30132.4 lineto
53929.1 30169.9 lineto
54041.6 30169.9 lineto
54116.6 30132.4 lineto
stroke
newpath
54416.5 29345 moveto
54454 29382.5 lineto
54529 29494.9 lineto
54566.5 29569.9 lineto
54604 29682.4 lineto
54641.5 29869.9 lineto
54641.5 30019.9 lineto
54604 30207.4 lineto
54566.5 30319.8 lineto
54529 30394.8 lineto
54454 30507.3 lineto
54416.5 30544.8 lineto
stroke
showpage
grestore
%%EOF
